<?xml version="1.0" encoding="UTF-8" standalone="no"?>
<!-- Created with Inkscape (http://www.inkscape.org/) -->

<svg
   xmlns:dc="http://purl.org/dc/elements/1.1/"
   xmlns:cc="http://creativecommons.org/ns#"
   xmlns:rdf="http://www.w3.org/1999/02/22-rdf-syntax-ns#"
   xmlns:svg="http://www.w3.org/2000/svg"
   xmlns="http://www.w3.org/2000/svg"
   xmlns:xlink="http://www.w3.org/1999/xlink"
   xmlns:sodipodi="http://sodipodi.sourceforge.net/DTD/sodipodi-0.dtd"
   xmlns:inkscape="http://www.inkscape.org/namespaces/inkscape"
   width="744.09448819"
   height="1052.3622047"
   id="svg2"
   version="1.1"
   inkscape:version="0.48.2 r9819"
   sodipodi:docname="Grave Robber media pieces.svg">
  <defs
     id="defs4">
    <inkscape:perspective
       sodipodi:type="inkscape:persp3d"
       inkscape:vp_x="0 : 526.18109 : 1"
       inkscape:vp_y="0 : 1000 : 0"
       inkscape:vp_z="744.09448 : 526.18109 : 1"
       inkscape:persp3d-origin="372.04724 : 350.78739 : 1"
       id="perspective3619" />
    <filter
       id="filter3094"
       inkscape:label="Drop shadow"
       width="1.5"
       height="1.5"
       x="-.25"
       y="-.25">
      <feGaussianBlur
         id="feGaussianBlur3096"
         in="SourceAlpha"
         stdDeviation="2"
         result="blur" />
      <feColorMatrix
         id="feColorMatrix3098"
         result="bluralpha"
         type="matrix"
         values="1 0 0 0 0 0 1 0 0 0 0 0 1 0 0 0 0 0 0.5 0 " />
      <feOffset
         id="feOffset3100"
         in="bluralpha"
         dx="4"
         dy="4"
         result="offsetBlur" />
      <feMerge
         id="feMerge3102">
        <feMergeNode
           id="feMergeNode3104"
           in="offsetBlur" />
        <feMergeNode
           id="feMergeNode3106"
           in="SourceGraphic" />
      </feMerge>
    </filter>
    <linearGradient
       id="linearGradient3336-3"
       inkscape:collect="always">
      <stop
         id="stop3338-4"
         offset="0"
         style="stop-color:#000000;stop-opacity:1;" />
      <stop
         id="stop3340-9"
         offset="1"
         style="stop-color:#000000;stop-opacity:0;" />
    </linearGradient>
    <linearGradient
       y2="-13.861998"
       x2="-1494.4135"
       y1="357.87415"
       x1="-1496.4337"
       gradientUnits="userSpaceOnUse"
       id="linearGradient3309-7-6"
       xlink:href="#linearGradient3336-3-5"
       inkscape:collect="always" />
    <linearGradient
       id="linearGradient3336-3-5"
       inkscape:collect="always">
      <stop
         id="stop3338-4-3"
         offset="0"
         style="stop-color:#000000;stop-opacity:1;" />
      <stop
         id="stop3340-9-2"
         offset="1"
         style="stop-color:#000000;stop-opacity:0;" />
    </linearGradient>
    <linearGradient
       id="linearGradient3336-3-5-5"
       inkscape:collect="always">
      <stop
         id="stop3338-4-3-3"
         offset="0"
         style="stop-color:#000000;stop-opacity:1;" />
      <stop
         id="stop3340-9-2-4"
         offset="1"
         style="stop-color:#000000;stop-opacity:0;" />
    </linearGradient>
    <linearGradient
       inkscape:collect="always"
       xlink:href="#linearGradient3336-3-5-5"
       id="linearGradient8538"
       gradientUnits="userSpaceOnUse"
       x1="-1496.4337"
       y1="357.87415"
       x2="-1494.4135"
       y2="-13.861998" />
    <linearGradient
       inkscape:collect="always"
       xlink:href="#linearGradient3336-3"
       id="linearGradient10362"
       gradientUnits="userSpaceOnUse"
       x1="-1496.4337"
       y1="357.87415"
       x2="-1494.4135"
       y2="-13.861998" />
  </defs>
  <sodipodi:namedview
     id="base"
     pagecolor="#ffffff"
     bordercolor="#666666"
     borderopacity="1.0"
     inkscape:pageopacity="0.0"
     inkscape:pageshadow="2"
     inkscape:zoom="0.08287997"
     inkscape:cx="-1842.9539"
     inkscape:cy="4171.8791"
     inkscape:document-units="px"
     inkscape:current-layer="g5972"
     showgrid="false"
     inkscape:window-width="1440"
     inkscape:window-height="850"
     inkscape:window-x="-8"
     inkscape:window-y="-8"
     inkscape:window-maximized="1" />
  <metadata
     id="metadata7">
    <rdf:RDF>
      <cc:Work
         rdf:about="">
        <dc:format>image/svg+xml</dc:format>
        <dc:type
           rdf:resource="http://purl.org/dc/dcmitype/StillImage" />
      </cc:Work>
    </rdf:RDF>
  </metadata>
  <g
     inkscape:label="Layer 1 copy copy"
     inkscape:groupmode="layer"
     id="g5972">
    <rect
       y="-6188.124"
       x="-4711.2388"
       height="7612.5098"
       width="5511.3921"
       id="rect5974"
       style="fill:#000080;fill-opacity:1;stroke:#000000;stroke-width:0.91000003;stroke-miterlimit:4;stroke-opacity:1;stroke-dasharray:none" />
    <path
       sodipodi:nodetypes="sssssssss"
       inkscape:connector-curvature="0"
       id="path5998"
       d="m -1172.8037,-3543.4817 72.8159,37.1429 c 19.4794,9.9363 130.90017,-19.5385 130.90017,2.3287 l 0,67.1017 c 0,21.8672 -17.6064,39.773 -39.47157,39.4716 -53.8572,-0.7425 -69.0315,-33.7207 -164.2445,0 -20.6127,7.3002 -39.4716,-17.6044 -39.4716,-39.4716 l 0,-67.1017 c 0,-21.8672 19.9922,-49.4079 39.4716,-39.4716 z"
       style="fill:#784421;fill-opacity:1;stroke:#000000;stroke-width:0.57946002;stroke-miterlimit:4;stroke-opacity:1" />
    <path
       sodipodi:nodetypes="sssssssss"
       inkscape:connector-curvature="0"
       id="path6000"
       d="m -1198.8833,-3721.549 0,92.816 c 0,21.8672 -17.6043,39.4715 -39.4716,39.4715 l -67.1017,0 c -21.8672,0 -88.5567,-38.5099 -82.3287,-59.4715 l 42.8571,-144.2446 c 6.228,-20.9616 17.6044,-39.4715 39.4716,-39.4715 l 67.1017,0 c 21.8673,0 39.4716,89.0329 39.4716,110.9001 z"
       style="fill:#552200;fill-opacity:1;stroke:#000000;stroke-width:0.57946002;stroke-miterlimit:4;stroke-opacity:1" />
    <path
       sodipodi:nodetypes="sssssssss"
       inkscape:connector-curvature="0"
       id="path6002"
       d="m -1161.2284,-3109.3346 -70.8682,52.6982 c -17.5475,13.0485 -123.3834,-24.888 -136.3844,-42.4707 l -61.6532,-83.38 c -13.001,-17.5826 23.0558,-87.8 44.3625,-92.7194 52.4817,-12.1172 105.2995,79.4824 189.7296,24.0372 18.2783,-12.0034 42.5302,7.6877 47.7428,28.9246 l 15.9955,65.1673 c 5.2127,21.2369 -11.3771,34.6944 -28.9246,47.7428 z"
       style="fill:#502d16;fill-opacity:1;stroke:#000000;stroke-width:0.57946002;stroke-miterlimit:4;stroke-opacity:1" />
    <path
       sodipodi:nodetypes="sssssssss"
       inkscape:connector-curvature="0"
       id="path6004"
       d="m -987.12193,-3932.1311 -34.28567,77.6609 c -6.0849,13.7829 -12.1292,27.1955 -27.1955,27.1955 l -46.2324,0 c -15.0663,0 -68.2774,-9.9137 -58.6241,-21.4812 l 31.4286,-37.6609 c 9.6533,-11.5676 16.8938,-16.2015 27.1955,-27.1956 l 34.8038,-37.1428 c 10.3017,-10.9941 78.99467,4.8412 72.90977,18.6241 z"
       style="fill:#502d16;fill-opacity:1;stroke:#000000;stroke-width:0.28658888;stroke-miterlimit:4;stroke-opacity:1" />
    <path
       sodipodi:nodetypes="sssssssss"
       inkscape:connector-curvature="0"
       id="path6006"
       d="m -946.18233,-3327.8461 72.0949,55.7442 c 12.9027,9.9765 -15.9806,26.9743 -38.9058,41.7666 l -36.0286,23.2472 c -22.9251,14.7924 -43.2552,-29.3693 -50.6291,-43.4208 l -16.82217,-32.0562 c -7.3738,-14.0514 2.0963,-1.6795 16.2828,-21.7133 l 14.51637,-20.4997 c 14.1864,-20.0339 26.589,-13.0445 39.4916,-3.068 z"
       style="fill:#666666;fill-opacity:1;stroke:#000000;stroke-width:0.51910371;stroke-miterlimit:4;stroke-opacity:1" />
    <path
       sodipodi:nodetypes="sssssssss"
       inkscape:connector-curvature="0"
       id="path6008"
       d="m -1025.6009,-3757.4309 57.89197,-28.5714 c 21.9274,-10.8219 112.238,25.6337 124.1381,46.9952 l 80,143.6063 c 11.9,21.3615 -184.8417,37.3462 -206.9953,26.9953 l -55.03477,-25.7143 c -22.1536,-10.351 -44.1381,-19.6856 -44.1381,-44.1382 l 0,-75.0348 c 0,-24.4525 22.2107,-33.3162 44.1381,-44.1381 z"
       style="fill:#784421;fill-opacity:1;stroke:#000000;stroke-width:0.4561052;stroke-miterlimit:4;stroke-opacity:1" />
    <rect
       inkscape:transform-center-y="-351.53309"
       inkscape:transform-center-x="-1066.7211"
       style="fill:#2b1100;fill-opacity:1;stroke:#000000;stroke-width:1.02817464;stroke-miterlimit:4;stroke-opacity:1;stroke-dasharray:none"
       id="rect6028-9"
       width="885.71429"
       height="992.09186"
       x="-3597.1428"
       y="-1866.5409" />
    <g
       id="g10850"
       transform="matrix(0.69311955,0,0,0.51761164,2346.286,-2783.3232)">
      <path
         sodipodi:nodetypes="sssss"
         inkscape:connector-curvature="0"
         id="path10779"
         d="m -3019.0718,2478.9909 c 42.2545,137.34 93.7135,183.0007 -247.1572,178.3286 -195.0786,-2.6738 -320.7366,-38.652 -253.4143,-150.1714 38.5183,-63.8055 22.7494,-226.856 303.4715,-456.7715 139.1302,-113.9496 127.0988,201.0892 197.1,428.6143 z"
         style="color:#000000;fill:#502d16;fill-opacity:1;fill-rule:nonzero;stroke:#006b00;stroke-width:1;stroke-linecap:butt;stroke-linejoin:miter;stroke-miterlimit:4;stroke-opacity:0.02645503;stroke-dashoffset:0;marker:none;visibility:visible;display:inline;overflow:visible;enable-background:accumulate" />
      <path
         sodipodi:nodetypes="sssss"
         inkscape:connector-curvature="0"
         id="path10784"
         d="m -3267.9058,2378.3205 c 130.4275,75.0252 -12.0871,137.533 -180.9409,150.6905 -24.0484,1.8739 93.59,-63.8083 93.59,-150.6905 0,-86.8823 132.251,-169.2907 148.4963,-187.1212 154.9111,-170.0267 -136.4569,143.8001 -61.1454,187.1212 z"
         style="color:#000000;fill:#2b1100;fill-opacity:1;fill-rule:nonzero;stroke:#006b00;stroke-width:0.91894692;stroke-linecap:butt;stroke-linejoin:miter;stroke-miterlimit:4;stroke-opacity:0.02645503;stroke-dashoffset:0;marker:none;visibility:visible;display:inline;overflow:visible;enable-background:accumulate" />
      <path
         sodipodi:nodetypes="sssss"
         inkscape:connector-curvature="0"
         id="path10784-1"
         d="m -3164.7513,2496.1677 c -306.2268,103.7319 42.4409,72.4062 91.1821,64.4528 11.9968,-1.9576 -47.1632,-27.2919 -47.1632,-64.4528 0,-37.161 -43.9053,-220.8206 -68.5751,-139.4778 -3.5278,11.6323 59.7527,127.5553 24.5562,139.4778 z"
         style="color:#000000;fill:#2b1100;fill-opacity:1;fill-rule:nonzero;stroke:#006b00;stroke-width:0.42663351;stroke-linecap:butt;stroke-linejoin:miter;stroke-miterlimit:4;stroke-opacity:0.02645503;stroke-dashoffset:0;marker:none;visibility:visible;display:inline;overflow:visible;enable-background:accumulate" />
      <path
         sodipodi:nodetypes="sssss"
         inkscape:connector-curvature="0"
         id="path10805"
         d="m -3100.1043,1968.8326 c -41.4821,53.4073 -18.9175,126.5399 -62.857,84.8773 -16.1509,-15.3141 -29.3647,19.686 -62.857,-84.8773 -28.5414,-89.1069 -17.9074,-87.6286 62.857,-84.8774 96.2609,3.279 115.291,17.3695 62.857,84.8774 z"
         style="color:#000000;fill:#502d16;fill-opacity:1;fill-rule:nonzero;stroke:#006b00;stroke-width:0.67707294;stroke-linecap:butt;stroke-linejoin:miter;stroke-miterlimit:4;stroke-opacity:0.02645503;stroke-dashoffset:0;marker:none;visibility:visible;display:inline;overflow:visible;enable-background:accumulate" />
      <path
         sodipodi:nodetypes="sssss"
         inkscape:connector-curvature="0"
         id="path10805-4"
         d="m -3165.831,2011.5232 c 45.4401,18.0014 -51.1509,4.6593 -30.4837,-33.8197 7.6574,-14.2569 8.0337,12.164 3.4937,-60.1929 -3.8937,-62.0572 9.1244,50.4528 70.0618,32.1229 17.8798,-5.3782 -69.5174,51.4131 -43.0718,61.8897 z"
         style="color:#000000;fill:#2b1100;fill-opacity:1;fill-rule:nonzero;stroke:#006b00;stroke-width:0.49571729;stroke-linecap:butt;stroke-linejoin:miter;stroke-miterlimit:4;stroke-opacity:0.02645503;stroke-dashoffset:0;marker:none;visibility:visible;display:inline;overflow:visible;enable-background:accumulate" />
      <path
         sodipodi:nodetypes="sssss"
         inkscape:connector-curvature="0"
         id="path10805-4-8"
         d="m -3137.9359,2054.5204 c 1.8963,-41.1109 14.4941,39.6334 -15.7794,33.3761 -11.2166,-2.3184 8.7384,27.0386 -40.9384,13.2551 -45.4427,-12.6086 95.6219,97.1237 5.8378,-64.5512 -7.2729,-13.0964 49.7764,41.8461 50.88,17.92 z"
         style="color:#000000;fill:#2b1100;fill-opacity:1;fill-rule:nonzero;stroke:#006b00;stroke-width:0.38157681;stroke-linecap:butt;stroke-linejoin:miter;stroke-miterlimit:4;stroke-opacity:0.02645503;stroke-dashoffset:0;marker:none;visibility:visible;display:inline;overflow:visible;enable-background:accumulate" />
    </g>
  </g>
  <g
     inkscape:label="Layer 1"
     inkscape:groupmode="layer"
     id="layer1" />
  <g
     inkscape:label="Layer 1 copy#3"
     inkscape:groupmode="layer"
     id="g3505">
    <path
       sodipodi:type="arc"
       style="fill:#e6e6e6;fill-opacity:1;stroke:#000000;stroke-width:0.91000002999999996;stroke-miterlimit:4;stroke-opacity:1;stroke-dasharray:none"
       id="path3941"
       sodipodi:cx="-4771.4287"
       sodipodi:cy="-1147.6378"
       sodipodi:rx="1834.2858"
       sodipodi:ry="1834.2858"
       d="m -2937.1429,-1147.6378 a 1834.2858,1834.2858 0 1 1 -3668.5716,0 1834.2858,1834.2858 0 1 1 3668.5716,0 z"
       transform="matrix(0.28989464,0,0,0.29924044,-2142.5028,-3335.6468)" />
  </g>
  <g
     id="g3577"
     inkscape:groupmode="layer"
     inkscape:label="Layer 1 copy#4" />
  <g
     id="g3090"
     inkscape:groupmode="layer"
     inkscape:label="Layer 1 copy#1" />
  <g
     id="g2987"
     inkscape:groupmode="layer"
     inkscape:label="Layer 1 copy">
    <g
       id="g4079"
       transform="matrix(1.0039235,0,0,1.2755135,-3366.1458,-1676.6144)">
      <g
         id="g4068">
        <rect
           style="fill:#008000;fill-opacity:1;stroke:#000000;stroke-width:0.45880151;stroke-miterlimit:4;stroke-opacity:1;stroke-dasharray:none"
           id="rect2985"
           width="885.71429"
           height="197.54578"
           x="937.14294"
           y="-1059.0664" />
        <rect
           y="-1059.0664"
           x="937.14294"
           height="197.54578"
           width="885.71429"
           id="rect3110"
           style="fill:#008000;fill-opacity:1;stroke:#000000;stroke-width:0.45880151;stroke-miterlimit:4;stroke-opacity:1;stroke-dasharray:none" />
        <rect
           y="-876.63245"
           x="937.14294"
           height="594.70892"
           width="885.71429"
           id="rect2989"
           style="fill:#2b1100;fill-opacity:1;stroke:#000000;stroke-width:0.79605526;stroke-miterlimit:4;stroke-opacity:1;stroke-dasharray:none" />
        <path
           style="fill:#784421;fill-opacity:1;stroke:#000000;stroke-width:0.57946002;stroke-miterlimit:4;stroke-opacity:1"
           d="m 1036.4492,-833.5174 72.8159,37.14286 c 19.4794,9.93629 133.0537,-19.43224 130.9002,2.32871 l -6.4286,64.95883 c -0.7046,7.12019 -20.0846,31.63744 -33.043,41.61443 -46.1418,35.52573 -85.6169,91.42379 -164.2445,0 -14.2586,-16.57914 -39.4716,-17.60432 -39.4716,-39.47157 l 0,-67.10169 c 0,-21.86725 19.9922,-49.40786 39.4716,-39.47157 z"
           id="rect2991"
           inkscape:connector-curvature="0"
           sodipodi:nodetypes="sssssssss" />
        <path
           style="fill:#552200;fill-opacity:1;stroke:#000000;stroke-width:0.57946002;stroke-miterlimit:4;stroke-opacity:1"
           d="m 1755.8796,-692.61723 0,92.81596 c 0,21.86725 -17.6043,39.47157 -39.4716,39.47157 l -67.1017,0 c -21.8672,0 -88.5567,-38.50997 -82.3287,-59.47157 l 42.8572,-144.24453 c 6.228,-20.9616 17.6043,-39.47157 39.4715,-39.47157 l 67.1017,0 c 21.8673,0 39.4716,89.03289 39.4716,110.90014 z"
           id="rect2991-1"
           inkscape:connector-curvature="0"
           sodipodi:nodetypes="sssssssss" />
        <path
           style="fill:#502d16;fill-opacity:1;stroke:#000000;stroke-width:0.28658888;stroke-miterlimit:4;stroke-opacity:1"
           d="m 1596.026,-765.03977 -34.2857,77.66094 c -6.0849,13.78289 -12.1292,27.19551 -27.1955,27.19551 l -46.2324,0 c -15.0663,0 -51.129,-8.41152 -58.6241,-21.48122 l -31.4285,-54.8038 c -7.4952,-13.06971 29.7163,-70.82749 44.3383,-67.19552 l 80.5181,20 c 14.622,3.63198 78.9947,4.84119 72.9098,18.62409 z"
           id="rect2991-1-7"
           inkscape:connector-curvature="0"
           sodipodi:nodetypes="sssssssss" />
        <path
           style="fill:#784421;fill-opacity:1;stroke:#000000;stroke-width:0.4561052;stroke-miterlimit:4;stroke-opacity:1"
           d="m 1048.1969,-546.43619 57.892,-28.57143 c 21.9274,-10.82185 112.238,25.63374 124.1381,46.99525 l 80,143.60625 c 11.9,21.36152 -184.8417,37.34625 -206.9953,26.99527 l -55.0348,-25.71429 c -22.1536,-10.35099 -44.1381,-19.6856 -44.1381,-44.13812 l 0,-75.03482 c 0,-24.45251 22.2107,-33.31625 44.1381,-44.13811 z"
           id="rect2991-4"
           inkscape:connector-curvature="0"
           sodipodi:nodetypes="sssssssss" />
        <path
           style="fill:#502d16;fill-opacity:1;stroke:#000000;stroke-width:0.57946002;stroke-miterlimit:4;stroke-opacity:1"
           d="m 1741.4844,-373.48039 -70.8683,52.69823 c -17.5475,13.04846 -123.3833,-24.88803 -136.3843,-42.47068 l -61.6532,-83.38004 c -13.0011,-17.58265 23.0558,-87.80003 44.3625,-92.71943 52.4816,-12.11724 105.2995,79.48241 189.7295,24.03717 18.2783,-12.00336 42.5302,7.68772 47.7429,28.92459 l 15.9955,65.16733 c 5.2126,21.23687 -11.3771,34.69437 -28.9246,47.74283 z"
           id="rect2991-0"
           inkscape:connector-curvature="0"
           sodipodi:nodetypes="sssssssss" />
        <path
           style="fill:#666666;fill-opacity:1;stroke:#000000;stroke-width:0.51910371;stroke-miterlimit:4;stroke-opacity:1"
           d="m 1289.8944,-687.06324 72.0949,55.74426 c 12.9027,9.97645 -15.9806,26.97428 -38.9058,41.76659 l -36.0286,23.24723 c -22.9252,14.79232 -50.7879,-27.55286 -50.6292,-43.42088 l 0.3207,-32.05618 c 0.1587,-15.86791 -4.5537,1.67473 4.8542,-20.99899 l 8.8022,-21.21405 c 9.4079,-22.67373 26.5889,-13.04442 39.4916,-3.06798 z"
           id="rect3087"
           inkscape:connector-curvature="0"
           sodipodi:nodetypes="sssssssss" />
      </g>
    </g>
    <path
       style="fill:#784421;fill-opacity:1;stroke:#000000;stroke-width:0.57946002;stroke-miterlimit:4;stroke-opacity:1"
       d="m -1172.8037,-3543.4817 72.8159,37.1429 c 19.4794,9.9363 130.90017,-19.5385 130.90017,2.3287 l 0,67.1017 c 0,21.8672 -17.6064,39.773 -39.47157,39.4716 -53.8572,-0.7425 -69.0315,-33.7207 -164.2445,0 -20.6127,7.3002 -39.4716,-17.6044 -39.4716,-39.4716 l 0,-67.1017 c 0,-21.8672 19.9922,-49.4079 39.4716,-39.4716 z"
       id="rect2991-2"
       inkscape:connector-curvature="0"
       sodipodi:nodetypes="sssssssss" />
    <path
       style="fill:#552200;fill-opacity:1;stroke:#000000;stroke-width:0.57946002;stroke-miterlimit:4;stroke-opacity:1"
       d="m -1198.8833,-3721.549 0,92.816 c 0,21.8672 -17.6043,39.4715 -39.4716,39.4715 l -67.1017,0 c -21.8672,0 -88.5567,-38.5099 -82.3287,-59.4715 l 42.8571,-144.2446 c 6.228,-20.9616 17.6044,-39.4715 39.4716,-39.4715 l 67.1017,0 c 21.8673,0 39.4716,89.0329 39.4716,110.9001 z"
       id="rect2991-1-2"
       inkscape:connector-curvature="0"
       sodipodi:nodetypes="sssssssss" />
    <path
       style="fill:#502d16;fill-opacity:1;stroke:#000000;stroke-width:0.57946002;stroke-miterlimit:4;stroke-opacity:1"
       d="m -1161.2284,-3109.3346 -70.8682,52.6982 c -17.5475,13.0485 -123.3834,-24.888 -136.3844,-42.4707 l -61.6532,-83.38 c -13.001,-17.5826 23.0558,-87.8 44.3625,-92.7194 52.4817,-12.1172 105.2995,79.4824 189.7296,24.0372 18.2783,-12.0034 42.5302,7.6877 47.7428,28.9246 l 15.9955,65.1673 c 5.2127,21.2369 -11.3771,34.6944 -28.9246,47.7428 z"
       id="rect2991-0-1"
       inkscape:connector-curvature="0"
       sodipodi:nodetypes="sssssssss" />
    <path
       style="fill:#502d16;fill-opacity:1;stroke:#000000;stroke-width:0.28658888;stroke-miterlimit:4;stroke-opacity:1"
       d="m -987.12193,-3932.1311 -34.28567,77.6609 c -6.0849,13.7829 -12.1292,27.1955 -27.1955,27.1955 l -46.2324,0 c -15.0663,0 -68.2774,-9.9137 -58.6241,-21.4812 l 31.4286,-37.6609 c 9.6533,-11.5676 16.8938,-16.2015 27.1955,-27.1956 l 34.8038,-37.1428 c 10.3017,-10.9941 78.99467,4.8412 72.90977,18.6241 z"
       id="rect2991-1-7-6"
       inkscape:connector-curvature="0"
       sodipodi:nodetypes="sssssssss" />
    <path
       style="fill:#666666;fill-opacity:1;stroke:#000000;stroke-width:0.51910371;stroke-miterlimit:4;stroke-opacity:1"
       d="m -946.18233,-3327.8461 72.0949,55.7442 c 12.9027,9.9765 -15.9806,26.9743 -38.9058,41.7666 l -36.0286,23.2472 c -22.9251,14.7924 -43.2552,-29.3693 -50.6291,-43.4208 l -16.82217,-32.0562 c -7.3738,-14.0514 2.0963,-1.6795 16.2828,-21.7133 l 14.51637,-20.4997 c 14.1864,-20.0339 26.589,-13.0445 39.4916,-3.068 z"
       id="rect3087-8"
       inkscape:connector-curvature="0"
       sodipodi:nodetypes="sssssssss" />
    <path
       style="fill:#784421;fill-opacity:1;stroke:#000000;stroke-width:0.4561052;stroke-miterlimit:4;stroke-opacity:1"
       d="m -1025.6009,-3757.4309 57.89197,-28.5714 c 21.9274,-10.8219 112.238,25.6337 124.1381,46.9952 l 80,143.6063 c 11.9,21.3615 -184.8417,37.3462 -206.9953,26.9953 l -55.03477,-25.7143 c -22.1536,-10.351 -44.1381,-19.6856 -44.1381,-44.1382 l 0,-75.0348 c 0,-24.4525 22.2107,-33.3162 44.1381,-44.1381 z"
       id="rect2991-4-5"
       inkscape:connector-curvature="0"
       sodipodi:nodetypes="sssssssss" />
    <g
       id="g5955"
       transform="translate(-3215.8838,-1330.1934)">
      <rect
         style="fill:#2b1100;fill-opacity:1;stroke:#000000;stroke-width:1.02817464;stroke-miterlimit:4;stroke-opacity:1;stroke-dasharray:none"
         id="rect3581"
         width="885.71429"
         height="992.09186"
         x="1878.0378"
         y="-1072.3478" />
      <path
         sodipodi:nodetypes="sssssssss"
         inkscape:connector-curvature="0"
         id="rect2991-2-0"
         d="m 2278.6526,-599.48637 72.816,37.46643 c 19.4794,10.02285 130.9001,-19.70869 130.9001,2.34899 l 0,67.68619 c 0,22.05773 -26.5297,22.03562 -39.4716,39.81539 -36.5512,50.21454 -116.6517,185.92029 -194.5491,23.43589 -9.52,-19.85765 -9.167,-41.19355 -9.167,-63.25128 l 0,-67.68619 c 0,-22.05768 19.9922,-49.83817 39.4716,-39.81542 z"
         style="fill:#784421;fill-opacity:1;stroke:#000000;stroke-width:0.58197826;stroke-miterlimit:4;stroke-opacity:1" />
      <path
         sodipodi:nodetypes="sssssssss"
         inkscape:connector-curvature="0"
         id="rect2991-1-2-2"
         d="m 2252.573,-779.10473 34.3452,112.98456 c 6.4105,21.0885 -58.87,-7.38719 -76.8472,5.17095 l -53.9697,37.70126 c -17.9771,12.55814 -104.2133,-63.82495 -92.4302,-82.4065 26.332,-41.52468 -275.2242,-196.60313 37.8063,-203.58118 21.862,-0.48731 59.2576,-7.79855 78.8676,1.96163 l 32.7565,16.30319 c 142.2828,70.81551 33.061,90.77759 39.4715,111.86609 z"
         style="fill:#552200;fill-opacity:1;stroke:#000000;stroke-width:0.58197826;stroke-miterlimit:4;stroke-opacity:1" />
      <path
         sodipodi:nodetypes="sssssssss"
         inkscape:connector-curvature="0"
         id="rect2991-0-1-4"
         d="m 2290.228,-161.55757 -103.1932,-0.8472 c -21.8665,-0.17953 -93.6595,-26.97432 -112.1406,-38.76483 l -53.572,-34.17768 c -18.4811,-11.79049 49.3198,-105.88698 70.6265,-110.84923 52.4817,-12.22279 60.8528,114.81908 145.2828,58.89089 18.2783,-12.10792 60.7129,-9.56749 65.9256,11.85436 l 15.9955,65.73497 c 5.2126,21.42186 -7.0581,48.33824 -28.9246,48.15872 z"
         style="fill:#502d16;fill-opacity:1;stroke:#000000;stroke-width:0.58197826;stroke-miterlimit:4;stroke-opacity:1" />
      <path
         sodipodi:nodetypes="sssssssss"
         inkscape:connector-curvature="0"
         id="rect2991-1-7-6-8"
         d="m 2547.167,-988.46421 c -1.8893,14.36606 76.3528,72.84333 -68.631,69.16678 -15.0615,-0.382 -53.8436,2.89671 -67.6016,9.0912 l -54.3136,24.45488 c -13.7579,6.19459 -53.8358,-7.25858 -58.624,-21.66831 l -23.1197,-69.57642 c -4.7883,-14.40973 24.3098,-25.07302 39.3173,-26.41352 l 77.2303,-6.8978 c 15.0076,-1.3404 157.7236,6.7776 155.7423,21.84319 z"
         style="fill:#502d16;fill-opacity:1;stroke:#000000;stroke-width:0.28783435;stroke-miterlimit:4;stroke-opacity:1" />
      <path
         sodipodi:nodetypes="sssssssss"
         inkscape:connector-curvature="0"
         id="rect3087-8-6"
         d="m 2523.4568,-393.18096 126.6432,18.52862 c 16.1409,2.36151 0.017,217.44515 -26.784,212.29528 l -164.318,-31.57364 c -26.8013,-5.14989 -51.4257,-81.82746 -45.5783,-97.80353 l 11.4621,-31.31645 c 5.496,-15.01621 -2.642,-29.36698 18.303,-42.28144 7.5326,-4.64451 -8.4754,3.0163 22.5977,-13.54566 23.4442,-12.49579 41.5335,-16.66468 57.6743,-14.30318 z"
         style="fill:#666666;fill-opacity:1;stroke:#000000;stroke-width:0.52135962;stroke-miterlimit:4;stroke-opacity:1" />
      <path
         sodipodi:nodetypes="sssssssss"
         inkscape:connector-curvature="0"
         id="rect2991-4-5-5"
         d="m 2425.8555,-815.29918 57.8919,-28.82027 c 21.9275,-10.91616 112.2381,25.85698 124.1381,47.40455 l 80.0001,144.85719 c 11.9,21.54757 -184.8417,37.6715 -206.9953,27.23044 l -55.0348,-25.93829 c -22.1537,-10.44116 -44.1382,-19.85707 -44.1382,-44.52256 l 0,-75.68849 c 0,-24.6655 22.2107,-33.6064 44.1382,-44.52257 z"
         style="fill:#784421;fill-opacity:1;stroke:#000000;stroke-width:0.45808735;stroke-miterlimit:4;stroke-opacity:1" />
      <path
         sodipodi:nodetypes="sssssssss"
         inkscape:connector-curvature="0"
         id="rect3087-8-6-0"
         d="m 2130.0055,-568.36301 23.6076,84.76053 c 4.4114,15.83864 -15.9806,27.20924 -38.9058,42.13039 l -36.0286,23.44972 c -22.9252,14.92117 -65.68,5.1239 -72.8525,-9.15473 l -21.8729,-43.54388 c -7.1724,-14.27861 -48.4114,-38.37646 -4.9305,-64.69836 7.1794,-4.34613 5.4729,-41.32273 51.8921,-56.34162 23.375,-7.56301 94.6792,7.55938 99.0906,23.39795 z"
         style="fill:#666666;fill-opacity:1;stroke:#000000;stroke-width:0.52135962;stroke-miterlimit:4;stroke-opacity:1" />
    </g>
  </g>
  <g
     id="g3108"
     inkscape:groupmode="layer"
     inkscape:label="Layer 1 copy#2">
    <path
       style="fill:#808080;fill-opacity:1;stroke:#000000;stroke-width:0.10048419000000000;stroke-miterlimit:4;stroke-opacity:1;stroke-dasharray:none"
       d="m -3185.7676,-2789.5402 c 72.8589,0 131.9984,55.5931 132.6485,124.4051 l 0.023,0 0,278.6549 -265.259,0 0,-277.5104 -0.064,0 c 0,-69.3397 59.3893,-125.5496 132.6523,-125.5496 z"
       id="rect3991-82-0"
       inkscape:connector-curvature="0" />
    <g
       id="g10282"
       transform="translate(366.49386,90.492311)">
      <g
         id="g3277-5"
         transform="translate(-2580.4703,-4969.6721)">
        <g
           id="g3263-1">
          <rect
             style="fill:#2b1100;fill-opacity:1;stroke:#000000;stroke-width:0.34726319;stroke-miterlimit:4;stroke-opacity:1;stroke-dasharray:none"
             id="rect3119-7-0"
             width="94.15699"
             height="85.243721"
             x="642.62122"
             y="-293.81943"
             ry="21.633673"
             transform="matrix(-0.16061881,0.98701651,-0.97122337,-0.23817044,0,0)" />
          <rect
             style="fill:#2b1100;fill-opacity:1;stroke:#000000;stroke-width:0.34726319;stroke-miterlimit:4;stroke-opacity:1;stroke-dasharray:none"
             id="rect3119-7-7-9"
             width="91.793282"
             height="52.805832"
             x="643.8031"
             y="-256.10095"
             ry="23.142412"
             rx="45.896641"
             transform="matrix(-0.16061881,0.98701651,-0.97122337,-0.23817044,0,0)" />
          <path
             style="fill:#2b1100;fill-opacity:1;stroke:#000000;stroke-width:0.38064101;stroke-miterlimit:4;stroke-opacity:1"
             d="m 148.59411,724.93979 c 7.00923,-4.68742 -21.39316,34.01475 -35.35851,18.53211 -14.918382,-16.53922 3.86264,-47.87705 18.03031,-56.79629 30.29216,-19.0704 42.79972,10.9802 41.77686,23.78826"
             id="path3121-1-9"
             inkscape:connector-curvature="0"
             sodipodi:nodetypes="cssc" />
        </g>
        <path
           sodipodi:nodetypes="scssccssccssccsscs"
           inkscape:connector-curvature="0"
           id="rect3093-2-6"
           d="m 278.02156,781.41802 c 2.44853,-14.97195 3.96359,-30.47343 4.99653,-46.24535 -0.97297,-0.0374 -2.9666,-1.79475 -4.19041,-1.66586 -2.97352,0.31317 -11.29148,-1.89614 -13.19279,-4.92394 -0.14141,-0.22518 14.08722,-2.05608 17.90224,-2.17864 0.37926,-6.92037 0.69374,-13.88207 0.95757,-20.86768 0.003,-0.0832 -0.0442,-0.18657 -0.1247,-0.19014 l -111.25197,-4.931 c -2.77951,-0.12322 3.8134,19.28457 -0.39737,0.277 4.82755,61.74217 -0.12142,57.93024 -18.24404,91.50127 8.76657,-14.10349 0.0374,0.14401 0.1143,0.17428 l 108.65877,42.76462 c 0.0769,0.0303 0.14142,-0.0292 0.17255,-0.10397 3.62688,-8.71598 6.59608,-17.80327 9.05312,-27.17976 -1.71339,-2.81573 -4.87131,-8.78213 -4.77749,-8.97698 1.47456,-3.06211 4.9133,-2.44883 5.84133,-0.82806 0.26293,0.45922 0.89579,-0.0659 1.37616,-0.32738 1.17545,-5.35464 2.2051,-10.78849 3.1062,-16.29841 z"
           style="fill:#2b1100;fill-opacity:1;stroke:#000000;stroke-width:0.37500221;stroke-miterlimit:4;stroke-opacity:1" />
      </g>
      <g
         transform="matrix(0.44800819,0,0,0.49372178,-1726.557,-4646.069)"
         id="g4610-8">
        <rect
           ry="0.35927993"
           y="1045.9539"
           x="1200.4399"
           height="278.80209"
           width="236.37569"
           id="rect4095-1-3"
           style="fill:#552200;fill-opacity:1;stroke:#000000;stroke-width:0.91000003;stroke-miterlimit:4;stroke-opacity:1;stroke-dasharray:none"
           transform="scale(-1,1)" />
        <path
           style="fill:#000000;fill-opacity:1;stroke:#000000;stroke-width:0.33065546;stroke-miterlimit:4;stroke-opacity:1;stroke-dasharray:none"
           d="m -1199.1605,1311.9334 c 0.055,0 0.093,0.021 0.093,0.05 l 0,17.5503 c 0,0 0,0 0,0.01 -0.9731,-0.297 -16.8443,-5.1385 -16.8443,-5.1385 l -7.1522,3.2601 -10.6425,-3.2519 c 0,0 -3.7442,1.7142 -7.1678,3.2768 -5.0368,-1.5389 -10.6271,-3.2602 -10.6271,-3.2602 -0.01,0 -3.7333,1.7081 -7.1521,3.2685 -5.0386,-1.5394 -10.6427,-3.2519 -10.6427,-3.2519 -0.014,0.01 -3.7356,1.7008 -7.1521,3.2601 l -10.6582,-3.2436 c -0.019,0.01 -3.7371,1.7015 -7.1522,3.2601 -5.0399,-1.5397 -10.6426,-3.2518 -10.6426,-3.2518 l -7.1678,3.2684 -10.6426,-3.2602 -11.188,5.1137 -0.047,0 c -0.055,0 -0.1091,-0.029 -0.1091,-0.058 l 0,-17.5503 c 0,-0.029 0.054,-0.05 0.1091,-0.05 l 134.7854,0 z"
           id="rect4120-0-2-4"
           inkscape:connector-curvature="0" />
        <rect
           style="fill:#2b1100;fill-opacity:1;stroke:#000000;stroke-width:0.69447929;stroke-miterlimit:4;stroke-opacity:1;stroke-dasharray:none"
           id="rect4363-1-8"
           width="109.78304"
           height="160.23824"
           x="1304.2524"
           y="1051.7908"
           ry="0.15046167"
           transform="scale(-1,1)" />
        <g
           id="g4481-4-4"
           transform="matrix(-1.1108767,0,0,1,-2719.7793,416.52867)">
          <g
             style="fill:#000000"
             transform="matrix(0.58576468,0,0,0.46136143,-380.27652,358.65358)"
             id="g4385-98-9">
            <rect
               style="fill:#000000;fill-opacity:1;stroke:#000000;stroke-width:0.50761819;stroke-miterlimit:4;stroke-opacity:1;stroke-dasharray:none"
               id="rect4365-2-9"
               width="4.7034907"
               height="183.07742"
               x="96.925468"
               y="1504.3951"
               ry="0.10539741"
               transform="matrix(0.37772079,0.92591955,-0.92591955,0.37772079,0,0)" />
            <rect
               style="fill:#000000;fill-opacity:1;stroke:#000000;stroke-width:0.50761819;stroke-miterlimit:4;stroke-opacity:1;stroke-dasharray:none"
               id="rect4365-4-4-2"
               width="4.7034907"
               height="183.07742"
               x="1184.0215"
               y="-1162.0073"
               ry="0.10539741"
               transform="matrix(-0.37772079,0.92591955,0.92591955,0.37772079,0,0)" />
          </g>
          <g
             style="fill:#000000"
             transform="matrix(0.58576468,0,0,0.46136143,-381.64736,390.54393)"
             id="g4385-9-5-5">
            <rect
               style="fill:#000000;fill-opacity:1;stroke:#000000;stroke-width:0.50761819;stroke-miterlimit:4;stroke-opacity:1;stroke-dasharray:none"
               id="rect4365-46-2-5"
               width="4.7034907"
               height="183.07742"
               x="96.925468"
               y="1504.3951"
               ry="0.10539741"
               transform="matrix(0.37772079,0.92591955,-0.92591955,0.37772079,0,0)" />
            <rect
               style="fill:#000000;fill-opacity:1;stroke:#000000;stroke-width:0.50761819;stroke-miterlimit:4;stroke-opacity:1;stroke-dasharray:none"
               id="rect4365-4-0-9-3"
               width="4.7034907"
               height="183.07742"
               x="1184.0215"
               y="-1162.0073"
               ry="0.10539741"
               transform="matrix(-0.37772079,0.92591955,0.92591955,0.37772079,0,0)" />
          </g>
          <g
             style="fill:#000000"
             transform="matrix(0.58576468,0,0,0.46136143,-381.64736,421.9725)"
             id="g4385-9-3-9-3">
            <rect
               style="fill:#000000;fill-opacity:1;stroke:#000000;stroke-width:0.50761819;stroke-miterlimit:4;stroke-opacity:1;stroke-dasharray:none"
               id="rect4365-46-6-8-3"
               width="4.7034907"
               height="183.07742"
               x="96.925468"
               y="1504.3951"
               ry="0.10539741"
               transform="matrix(0.37772079,0.92591955,-0.92591955,0.37772079,0,0)" />
            <rect
               style="fill:#000000;fill-opacity:1;stroke:#000000;stroke-width:0.50761819;stroke-miterlimit:4;stroke-opacity:1;stroke-dasharray:none"
               id="rect4365-4-0-2-3-7"
               width="4.7034907"
               height="183.07742"
               x="1184.0215"
               y="-1162.0073"
               ry="0.10539741"
               transform="matrix(-0.37772079,0.92591955,0.92591955,0.37772079,0,0)" />
          </g>
          <g
             style="fill:#000000"
             transform="matrix(0.58576468,0,0,0.46136143,-382.36165,454.11536)"
             id="g4385-9-3-4-8-4">
            <rect
               style="fill:#000000;fill-opacity:1;stroke:#000000;stroke-width:0.50761819;stroke-miterlimit:4;stroke-opacity:1;stroke-dasharray:none"
               id="rect4365-46-6-5-6-3"
               width="4.7034907"
               height="183.07742"
               x="96.925468"
               y="1504.3951"
               ry="0.10539741"
               transform="matrix(0.37772079,0.92591955,-0.92591955,0.37772079,0,0)" />
            <rect
               style="fill:#000000;fill-opacity:1;stroke:#000000;stroke-width:0.50761819;stroke-miterlimit:4;stroke-opacity:1;stroke-dasharray:none"
               id="rect4365-4-0-2-8-9-8"
               width="4.7034907"
               height="183.07742"
               x="1184.0215"
               y="-1162.0073"
               ry="0.10539741"
               transform="matrix(-0.37772079,0.92591955,0.92591955,0.37772079,0,0)" />
          </g>
        </g>
        <path
           sodipodi:open="true"
           sodipodi:end="4.025809"
           sodipodi:start="0"
           transform="matrix(-0.92327311,0.3841442,-0.3841442,-0.92327311,-1641.642,2476.4226)"
           d="m -519.21843,981.65149 c 0,75.87331 -68.29137,137.38071 -152.53303,137.38071 -84.24167,0 -152.53304,-61.5074 -152.53304,-137.38071 0,-41.16412 20.49445,-80.15905 55.84299,-106.25281"
           sodipodi:ry="137.38075"
           sodipodi:rx="152.53304"
           sodipodi:cy="981.65149"
           sodipodi:cx="-671.75146"
           id="path4097-8-0"
           style="fill:#552200;fill-opacity:1;stroke:#000000;stroke-width:0.91000003;stroke-miterlimit:4;stroke-opacity:1;stroke-dasharray:none"
           sodipodi:type="arc" />
        <path
           sodipodi:nodetypes="sssssssss"
           inkscape:connector-curvature="0"
           id="rect4095-2-6-8"
           d="m -1158.367,978.7682 -322.0562,0 c -0.1,0 -0.1798,0.0885 -0.1798,0.19853 l 0,153.66177 c 0,0.1099 0.088,0.2401 0.1798,0.1985 131.8316,-59.4734 172.3044,-53.5753 322.0562,0 0.095,0.034 0.1797,-0.089 0.1797,-0.1985 l 0,-153.66177 c 0,-0.10999 -0.08,-0.19853 -0.1797,-0.19853 z"
           style="fill:#552200;fill-opacity:1;stroke:#000000;stroke-width:0.79002959;stroke-miterlimit:4;stroke-opacity:1" />
        <path
           style="fill:#000000;fill-opacity:1;stroke:#000000;stroke-width:0.5568651;stroke-miterlimit:4;stroke-opacity:1;stroke-dasharray:none"
           d="m -1261.3627,1357.2214 c 0.1148,0 0.1958,0.028 0.1958,0.067 l 0,23.769 c 0,0.01 0,0.01 0,0.011 -2.0379,-0.4021 -35.2756,-6.9592 -35.2756,-6.9592 l -14.9782,4.4153 -22.2878,-4.4042 c -0.01,0.01 -7.8411,2.3216 -15.0109,4.4378 -10.548,-2.0841 -22.2553,-4.4153 -22.2553,-4.4153 -0.019,0.01 -7.8185,2.3134 -14.9782,4.4266 -10.5518,-2.0849 -22.288,-4.4042 -22.288,-4.4042 -0.029,0.01 -7.8231,2.3035 -14.9781,4.4153 l -22.3206,-4.3929 c -0.039,0.011 -7.8263,2.3044 -14.9782,4.4153 -10.5546,-2.0853 -22.2879,-4.4041 -22.2879,-4.4041 l -15.0108,4.4265 -22.288,-4.4153 -23.43,6.9256 -0.098,0 c -0.1148,0 -0.2285,-0.039 -0.2285,-0.078 l 0,-23.769 c 0,-0.039 0.1137,-0.067 0.2285,-0.067 l 282.2696,0 z"
           id="rect4120-6-8"
           inkscape:connector-curvature="0" />
      </g>
      <g
         transform="matrix(0.58213855,0,0,0.54781569,-1736.873,-4452.0821)"
         id="g4495-0">
        <rect
           ry="0.35927993"
           y="617.99658"
           x="-907.117"
           height="278.80209"
           width="236.37569"
           id="rect4095-6"
           style="fill:#552200;fill-opacity:1;stroke:#000000;stroke-width:0.91000003;stroke-miterlimit:4;stroke-opacity:1;stroke-dasharray:none" />
        <path
           style="fill:#000000;fill-opacity:1;stroke:#000000;stroke-width:0.33065546;stroke-miterlimit:4;stroke-opacity:1;stroke-dasharray:none"
           d="m -908.3965,883.97619 c -0.055,0 -0.093,0.0205 -0.093,0.0497 l 0,17.55023 c 0,0.004 0,0.005 0,0.008 0.9731,-0.29692 16.8443,-5.13847 16.8443,-5.13847 l 7.1522,3.26015 10.6425,-3.2519 c 0,0.004 3.7442,1.71417 7.1678,3.27671 5.0368,-1.53882 10.6271,-3.26015 10.6271,-3.26015 0.01,0.004 3.7333,1.70813 7.1521,3.26845 5.0386,-1.5394 10.6427,-3.25189 10.6427,-3.25189 0.014,0.007 3.7356,1.70083 7.1521,3.26015 l 10.6582,-3.24364 c 0.019,0.008 3.7371,1.70155 7.1522,3.26016 5.0399,-1.53974 10.6426,-3.25186 10.6426,-3.25186 l 7.1678,3.26842 10.6426,-3.26016 11.188,5.11365 0.047,0 c 0.055,0 0.1091,-0.0289 0.1091,-0.0579 l 0,-17.55026 c 0,-0.0289 -0.054,-0.0496 -0.1091,-0.0496 l -134.7854,0 z"
           id="rect4120-0-8"
           inkscape:connector-curvature="0" />
        <rect
           style="fill:#2b1100;fill-opacity:1;stroke:#000000;stroke-width:0.69447929;stroke-miterlimit:4;stroke-opacity:1;stroke-dasharray:none"
           id="rect4363-19"
           width="109.78304"
           height="160.23824"
           x="-803.3045"
           y="623.8335"
           ry="0.15046167" />
        <g
           id="g4481-8"
           transform="matrix(1.1108767,0,0,1,612.22234,-11.428571)">
          <g
             style="fill:#000000"
             transform="matrix(0.58576468,0,0,0.46136143,-380.27652,358.65358)"
             id="g4385-97">
            <rect
               style="fill:#000000;fill-opacity:1;stroke:#000000;stroke-width:0.50761819;stroke-miterlimit:4;stroke-opacity:1;stroke-dasharray:none"
               id="rect4365-22"
               width="4.7034907"
               height="183.07742"
               x="96.925468"
               y="1504.3951"
               ry="0.10539741"
               transform="matrix(0.37772079,0.92591955,-0.92591955,0.37772079,0,0)" />
            <rect
               style="fill:#000000;fill-opacity:1;stroke:#000000;stroke-width:0.50761819;stroke-miterlimit:4;stroke-opacity:1;stroke-dasharray:none"
               id="rect4365-4-8"
               width="4.7034907"
               height="183.07742"
               x="1184.0215"
               y="-1162.0073"
               ry="0.10539741"
               transform="matrix(-0.37772079,0.92591955,0.92591955,0.37772079,0,0)" />
          </g>
          <g
             style="fill:#000000"
             transform="matrix(0.58576468,0,0,0.46136143,-381.64736,390.54393)"
             id="g4385-9-2">
            <rect
               style="fill:#000000;fill-opacity:1;stroke:#000000;stroke-width:0.50761819;stroke-miterlimit:4;stroke-opacity:1;stroke-dasharray:none"
               id="rect4365-46-8"
               width="4.7034907"
               height="183.07742"
               x="96.925468"
               y="1504.3951"
               ry="0.10539741"
               transform="matrix(0.37772079,0.92591955,-0.92591955,0.37772079,0,0)" />
            <rect
               style="fill:#000000;fill-opacity:1;stroke:#000000;stroke-width:0.50761819;stroke-miterlimit:4;stroke-opacity:1;stroke-dasharray:none"
               id="rect4365-4-0-90"
               width="4.7034907"
               height="183.07742"
               x="1184.0215"
               y="-1162.0073"
               ry="0.10539741"
               transform="matrix(-0.37772079,0.92591955,0.92591955,0.37772079,0,0)" />
          </g>
          <g
             style="fill:#000000"
             transform="matrix(0.58576468,0,0,0.46136143,-381.64736,421.9725)"
             id="g4385-9-3-7">
            <rect
               style="fill:#000000;fill-opacity:1;stroke:#000000;stroke-width:0.50761819;stroke-miterlimit:4;stroke-opacity:1;stroke-dasharray:none"
               id="rect4365-46-6-81"
               width="4.7034907"
               height="183.07742"
               x="96.925468"
               y="1504.3951"
               ry="0.10539741"
               transform="matrix(0.37772079,0.92591955,-0.92591955,0.37772079,0,0)" />
            <rect
               style="fill:#000000;fill-opacity:1;stroke:#000000;stroke-width:0.50761819;stroke-miterlimit:4;stroke-opacity:1;stroke-dasharray:none"
               id="rect4365-4-0-2-5"
               width="4.7034907"
               height="183.07742"
               x="1184.0215"
               y="-1162.0073"
               ry="0.10539741"
               transform="matrix(-0.37772079,0.92591955,0.92591955,0.37772079,0,0)" />
          </g>
          <g
             style="fill:#000000"
             transform="matrix(0.58576468,0,0,0.46136143,-382.36165,454.11536)"
             id="g4385-9-3-4-86">
            <rect
               style="fill:#000000;fill-opacity:1;stroke:#000000;stroke-width:0.50761819;stroke-miterlimit:4;stroke-opacity:1;stroke-dasharray:none"
               id="rect4365-46-6-5-1"
               width="4.7034907"
               height="183.07742"
               x="96.925468"
               y="1504.3951"
               ry="0.10539741"
               transform="matrix(0.37772079,0.92591955,-0.92591955,0.37772079,0,0)" />
            <rect
               style="fill:#000000;fill-opacity:1;stroke:#000000;stroke-width:0.50761819;stroke-miterlimit:4;stroke-opacity:1;stroke-dasharray:none"
               id="rect4365-4-0-2-8-2"
               width="4.7034907"
               height="183.07742"
               x="1184.0215"
               y="-1162.0073"
               ry="0.10539741"
               transform="matrix(-0.37772079,0.92591955,0.92591955,0.37772079,0,0)" />
          </g>
        </g>
        <path
           sodipodi:open="true"
           sodipodi:end="4.025809"
           sodipodi:start="0"
           transform="matrix(-0.92327311,0.3841442,-0.3841442,-0.92327311,-952.10317,2048.4654)"
           d="m -519.21843,981.65149 c 0,75.87331 -68.29137,137.38071 -152.53303,137.38071 -84.24167,0 -152.53304,-61.5074 -152.53304,-137.38071 0,-41.16412 20.49445,-80.15905 55.84299,-106.25281"
           sodipodi:ry="137.38075"
           sodipodi:rx="152.53304"
           sodipodi:cy="981.65149"
           sodipodi:cx="-671.75146"
           id="path4097-4"
           style="fill:#552200;fill-opacity:1;stroke:#000000;stroke-width:0.91000003;stroke-miterlimit:4;stroke-opacity:1;stroke-dasharray:none"
           sodipodi:type="arc" />
        <path
           sodipodi:nodetypes="sssssssss"
           inkscape:connector-curvature="0"
           id="rect4095-2-2"
           d="m -949.18997,550.81096 322.05621,0 c 0.0996,0 0.17977,0.0885 0.17977,0.19853 l 0,153.66172 c 0,0.10998 -0.0876,0.24014 -0.17977,0.19853 -131.83164,-59.47336 -172.3044,-53.57528 -322.05621,0 -0.0947,0.0339 -0.17977,-0.0886 -0.17977,-0.19853 l 0,-153.66172 c 0,-0.10999 0.0802,-0.19853 0.17977,-0.19853 z"
           style="fill:#552200;fill-opacity:1;stroke:#000000;stroke-width:0.79002959;stroke-miterlimit:4;stroke-opacity:1" />
        <path
           style="fill:#000000;fill-opacity:1;stroke:#000000;stroke-width:0.5568651;stroke-miterlimit:4;stroke-opacity:1;stroke-dasharray:none"
           d="m -853.77037,932.7997 c -0.11487,0 -0.19579,0.0278 -0.19579,0.0673 l 0,23.76895 c 0,0.006 0,0.007 0,0.0114 2.03782,-0.40212 35.27559,-6.95923 35.27559,-6.95923 l 14.97818,4.41535 22.28783,-4.40417 c 0.0104,0.006 7.84105,2.32156 15.01087,4.43778 10.54801,-2.08409 22.25534,-4.41535 22.25534,-4.41535 0.0188,0.006 7.8185,2.31338 14.97819,4.42659 10.55178,-2.08488 22.28793,-4.40417 22.28793,-4.40417 0.0292,0.009 7.82309,2.30351 14.97818,4.41535 l 22.32051,-4.39298 c 0.0386,0.0113 7.82633,2.30447 14.97829,4.41535 10.5546,-2.08533 22.28783,-4.40411 22.28783,-4.40411 l 15.01087,4.42654 22.28793,-4.41536 23.43,6.92562 0.0982,0 c 0.11486,0 0.22848,-0.0392 0.22848,-0.0784 l 0,-23.769 c 0,-0.0392 -0.11362,-0.0672 -0.22848,-0.0672 l -282.26959,0 z"
           id="rect4120-5"
           inkscape:connector-curvature="0" />
      </g>
      <g
         transform="translate(-2598.653,-4959.5706)"
         id="g4087-8">
        <path
           transform="matrix(0.36363082,-0.01354962,0.01650678,0.29848714,554.97448,475.24526)"
           d="m -331.42859,712.36218 c 0,208.29025 -145.18765,377.14282 -324.2857,377.14282 C -834.81234,1089.505 -980,920.65243 -980,712.36218 c 0,-208.29024 145.18766,-377.14285 324.28571,-377.14285 179.09805,0 324.2857,168.85261 324.2857,377.14285 z"
           sodipodi:ry="377.14285"
           sodipodi:rx="324.28571"
           sodipodi:cy="712.36218"
           sodipodi:cx="-655.71429"
           id="path2985-6"
           style="fill:#333333;fill-opacity:1;stroke:#000000;stroke-opacity:1"
           sodipodi:type="arc" />
        <g
           id="g3284-2">
          <path
             style="fill:#2b1100;fill-opacity:0.96825412;stroke:#000000;stroke-width:0.28667626;stroke-opacity:1"
             inkscape:transform-center-x="-163.95375"
             inkscape:transform-center-y="-38.663092"
             d="m 357.9368,766.572 3.45016,-163.98368 c 0.0985,-4.67956 -1.3582,-17.16088 0.92428,-15.90505 10.98114,6.04188 12.86641,4.88093 18.4546,9.04315 0.22324,0.16627 15.81472,11.02578 15.84578,10.09883 l -5.40018,161.13388 c -0.009,0.26298 -0.24624,0.47204 -0.53428,0.46869 l -32.23479,-0.37504 c -0.28804,-0.003 -0.5111,-0.21773 -0.50557,-0.48078 z"
             id="rect2987-7-4-6"
             inkscape:connector-curvature="0"
             sodipodi:nodetypes="sssssssss" />
          <path
             style="fill:#2b1100;fill-opacity:0.96825412;stroke:#000000;stroke-width:0.27020669;stroke-opacity:1"
             inkscape:transform-center-x="-163.95373"
             inkscape:transform-center-y="-34.348375"
             d="m 231.20355,761.75425 7.11523,-138.39556 20.11517,-24.52803 -5.71816,167.9781 z"
             id="rect2987-7-4-0-5"
             inkscape:connector-curvature="0"
             sodipodi:nodetypes="ccccc" />
          <path
             style="fill:#2b1100;fill-opacity:0.96825412;stroke:#000000;stroke-width:0.30661646;stroke-opacity:1"
             d="m 218.21479,735.02212 220.29721,1.33666 c 2.51468,0.0153 -0.01,2.46726 -0.01,2.46726 -3.28872,11.04005 -10.67909,19.6191 -17.37264,28.61625 0,0 -0.62147,-0.003 -0.8846,-0.002 l -181.57486,0.50507 c 0,0 -7.73488,-8.55618 -8.55618,-8.55618 l -11.61675,-22.88184 c -0.8518,-1.67781 -0.54578,-1.48672 -0.28265,-1.48512 z"
             id="rect2987-3"
             inkscape:connector-curvature="0"
             sodipodi:nodetypes="ssccsccss" />
          <path
             style="fill:#ff7f2a;fill-opacity:0.96825412;stroke:#000000;stroke-width:0.34788337;stroke-opacity:1"
             d="m 274.25732,734.08558 c -0.23736,0.0441 -0.4095,0.23733 -0.4095,0.46754 l 0,35.14889 c 0,0.26311 0.22383,0.47794 0.51188,0.47794 l 56.15919,0 c 0.28805,0 0.52326,-0.21483 0.52326,-0.47794 l 0,-35.14889 c 0,-0.2631 -0.23521,-0.46754 -0.52326,-0.46754 l -56.15919,0 c -0.036,0 -0.0685,-0.006 -0.10238,0 z m 10.65853,5.79754 33.989,0 c 0.18744,0 0.34125,0.13009 0.34125,0.3013 l 0,22.87847 c 0,0.17122 -0.15381,0.3117 -0.34125,0.3117 l -33.989,0 c -0.18745,0 -0.34125,-0.14048 -0.34125,-0.3117 l 0,-22.87847 c 0,-0.17121 0.1538,-0.3013 0.34125,-0.3013 z"
             id="rect3061-9"
             inkscape:connector-curvature="0" />
        </g>
      </g>
      <path
         style="fill:#2b1100;fill-opacity:1;stroke:#000000;stroke-width:0.48355672;stroke-miterlimit:4;stroke-opacity:1"
         d="m -2205.0572,-4114.6945 c -13.4973,-3.8053 -21.4238,-17.1859 -27.4538,-27.2664 -7.8799,-13.1731 9.5838,-28.2417 27.4538,-28.2417 0.1635,0 0.3269,10e-4 0.4904,0"
         id="path3121-2"
         inkscape:connector-curvature="0"
         sodipodi:nodetypes="cssc" />
      <g
         transform="translate(-1540.0132,-4763.601)"
         id="g4634-2">
        <rect
           transform="matrix(0.01512117,-0.99988567,0.99885949,-0.04774631,0,0)"
           ry="0.35927993"
           y="-865.80829"
           x="-609.69733"
           height="344.94611"
           width="35.594116"
           id="rect3183-9"
           style="fill:#784421;fill-opacity:1;stroke:#000000;stroke-width:0.33452848;stroke-opacity:1" />
        <path
           inkscape:connector-curvature="0"
           id="path3189-5-5"
           d="m -415.03007,519.47298 c -73.81072,4.12084 -130.99836,47.22344 -127.73631,96.27777 3.26201,49.05435 65.74114,85.48244 139.55181,81.3616 l -11.8155,-177.63937 z m -31.50999,22.45987 7.23798,130.55582 c -39.83434,5.09175 -73.75152,-20.00226 -75.74916,-56.0551 -1.99762,-36.05283 28.6769,-69.40894 68.51118,-74.50072 z"
           style="fill:#808080;fill-opacity:1;stroke:#000000;stroke-width:0.27229542;stroke-opacity:1" />
        <path
           transform="matrix(0.00968427,0.24470551,-0.44416225,0.00560435,-744.53815,1078.9337)"
           sodipodi:open="true"
           sodipodi:end="3.1415927"
           sodipodi:start="0"
           d="m -1457.1429,215.21933 c 0,244.58325 -162.4566,442.85715 -362.8571,442.85715 -200.4005,0 -362.8571,-198.2739 -362.8571,-442.85715 0,-1e-5 0,-1e-5 0,-2e-5"
           sodipodi:ry="442.85715"
           sodipodi:rx="362.85715"
           sodipodi:cy="215.21933"
           sodipodi:cx="-1820"
           id="path3189-2"
           style="fill:#808080;fill-opacity:1;stroke:#000000;stroke-opacity:1"
           sodipodi:type="arc" />
      </g>
      <g
         transform="translate(27.147693,-9.0492311)"
         id="g10262">
        <g
           transform="translate(-2602.6937,-4961.5909)"
           id="g3305-4">
          <path
             sodipodi:type="arc"
             style="fill:#ffb380;fill-opacity:0.96825412;stroke:#000000;stroke-opacity:1"
             id="path3071-6"
             sodipodi:cx="-1490.9851"
             sodipodi:cy="80.595436"
             sodipodi:rx="278.80209"
             sodipodi:ry="280.82242"
             d="m -1212.183,80.595436 c 0,155.093944 -124.824,280.822414 -278.8021,280.822414 -153.9782,0 -278.8021,-125.72847 -278.8021,-280.822414 0,-155.093939 124.8239,-280.822416 278.8021,-280.822416 153.9781,0 278.8021,125.728477 278.8021,280.822416 z"
             transform="matrix(0.36400528,0,0,0.3324755,846.0746,498.57328)" />
          <path
             sodipodi:type="arc"
             style="fill:url(#linearGradient10362);fill-opacity:1;stroke:#000000;stroke-opacity:1"
             id="path3071-4-1"
             sodipodi:cx="-1490.9851"
             sodipodi:cy="80.595436"
             sodipodi:rx="278.80209"
             sodipodi:ry="280.82242"
             d="m -1212.183,80.595436 c 0,155.093944 -124.824,280.822414 -278.8021,280.822414 -153.9782,0 -278.8021,-125.72847 -278.8021,-280.822414 0,-155.093939 124.8239,-280.822416 278.8021,-280.822416 153.9781,0 278.8021,125.728477 278.8021,280.822416 z"
             transform="matrix(0.36400528,0,0,0.3324755,846.20858,498.97441)" />
        </g>
        <g
           transform="translate(-2601.6835,-4963.6112)"
           id="g3297-8">
          <path
             style="fill:#ffffff;fill-opacity:0.96825412;stroke:#000000;stroke-width:0.10989673;stroke-opacity:1"
             d="m 269.33061,566.206 c -9.00486,10.99999 -28.38892,13.48139 -43.2955,5.54237 -14.90662,-7.93903 -19.69097,-23.29214 -10.68609,-34.29213 9.00486,-10.99999 18.04377,-1.89627 32.95038,6.04276 14.90661,7.93902 30.03607,11.70702 21.03121,22.707 z"
             id="path3280-2"
             inkscape:connector-curvature="0"
             sodipodi:nodetypes="sssss" />
          <path
             style="fill:#000000;fill-opacity:0.96825412;stroke:#000000;stroke-width:0.082151;stroke-opacity:1"
             d="m 260.8536,564.19085 c -6.75307,8.16904 -21.31736,9.9923 -32.53024,4.07237 -11.21287,-5.91993 -14.82832,-17.34131 -8.07522,-25.51035 6.75307,-8.16904 13.55779,-1.38969 24.77067,4.53024 11.21287,5.91993 22.58787,8.7387 15.83479,16.90774 z"
             id="path3280-6-1"
             inkscape:connector-curvature="0"
             sodipodi:nodetypes="sssss" />
          <path
             style="fill:#e6e6e6;fill-opacity:0.96825412;stroke:#000000;stroke-width:0.01247112;stroke-opacity:1"
             d="m 256.09838,555.43304 c -1.00852,1.28266 -3.16215,1.58433 -4.81023,0.67381 -1.64813,-0.91052 -2.16663,-2.68843 -1.15809,-3.97108 1.00854,-1.28266 2.00438,-0.23284 3.6525,0.67768 1.64809,0.91051 3.32436,1.33694 2.31582,2.61959 z"
             id="path3280-6-0-1"
             inkscape:connector-curvature="0"
             sodipodi:nodetypes="sssss" />
          <path
             style="fill:#ffffff;fill-opacity:0.96825412;stroke:#000000;stroke-width:0.14733103;stroke-opacity:1"
             d="m 289.45969,567.62756 c 11.59492,15.35396 36.55442,18.81754 55.74858,7.73612 19.19423,-11.08142 25.35467,-32.51154 13.75971,-47.86549 -11.59492,-15.35395 -23.23367,-2.64685 -42.42787,8.43457 -19.19419,11.08142 -38.6753,16.34084 -27.08042,31.6948 z"
             id="path3280-3-9"
             inkscape:connector-curvature="0"
             sodipodi:nodetypes="sssss" />
          <path
             style="fill:#000000;fill-opacity:0.96825412;stroke:#000000;stroke-width:0.11013422;stroke-opacity:1"
             d="m 300.37496,564.81478 c 8.69541,11.40247 27.44883,13.94741 41.88685,5.68427 14.43805,-8.26313 19.09342,-24.20527 10.39792,-35.60774 -8.69546,-11.40248 -17.45742,-1.93976 -31.89543,6.32338 -14.43806,8.26313 -29.08484,12.19761 -20.38934,23.60009 z"
             id="path3280-6-6-7"
             inkscape:connector-curvature="0"
             sodipodi:nodetypes="sssss" />
          <path
             style="fill:#e6e6e6;fill-opacity:0.96825412;stroke:#000000;stroke-width:0.01671918;stroke-opacity:1"
             d="m 335.17859,537.14134 c 1.29858,1.79035 4.07166,2.21143 6.19378,0.94052 2.12216,-1.27092 2.78978,-3.75256 1.4912,-5.54291 -1.29866,-1.79035 -2.5809,-0.325 -4.70306,0.94593 -2.12215,1.2709 -4.28055,1.86612 -2.98192,3.65646 z"
             id="path3280-6-0-2-6"
             inkscape:connector-curvature="0"
             sodipodi:nodetypes="sssss" />
        </g>
        <g
           transform="translate(-2606.7343,-4963.6112)"
           id="g3290-0">
          <path
             sodipodi:type="arc"
             style="fill:#ffff00;fill-opacity:0.96825412;stroke:#000000;stroke-opacity:1"
             id="path3448-0"
             sodipodi:cx="-2323.3508"
             sodipodi:cy="822.04742"
             sodipodi:rx="416.18286"
             sodipodi:ry="452.54834"
             d="m -1907.168,822.04742 c 0,249.93558 -186.3314,452.54838 -416.1828,452.54838 -229.8515,0 -416.1829,-202.6128 -416.1829,-452.54838 0,0 0,-10e-6 0,-2e-5"
             transform="matrix(0.28509676,-0.02801452,-0.02920078,-0.23768412,987.15061,646.17314)"
             sodipodi:open="true"
             sodipodi:start="0"
             sodipodi:end="3.1415927" />
          <path
             sodipodi:type="arc"
             style="fill:#000000;fill-opacity:0.96825412;stroke:#000000;stroke-opacity:1"
             id="path3450-3"
             sodipodi:cx="-2816.3052"
             sodipodi:cy="-93.150803"
             sodipodi:rx="222.23357"
             sodipodi:ry="232.33508"
             d="m -2594.0716,-93.150803 c 0,128.315124 -99.4974,232.335083 -222.2336,232.335083 -122.7362,0 -222.2335,-104.019959 -222.2335,-232.335083 0,-128.315127 99.4973,-232.335087 222.2335,-232.335087 122.7362,0 222.2336,104.01996 222.2336,232.335087 z"
             transform="matrix(0.28509676,-0.02801452,0.02920078,0.23768412,1035.1737,391.75892)" />
          <path
             sodipodi:type="arc"
             style="fill:#e6e6e6;fill-opacity:0.96825412;stroke:#000000;stroke-opacity:1"
             id="path3450-4-9"
             sodipodi:cx="-2816.3052"
             sodipodi:cy="-93.150803"
             sodipodi:rx="222.23357"
             sodipodi:ry="232.33508"
             d="m -2594.0716,-93.150803 c 0,128.315124 -99.4974,232.335083 -222.2336,232.335083 -122.7362,0 -222.2335,-104.019959 -222.2335,-232.335083 0,-128.315127 99.4973,-232.335087 222.2335,-232.335087 122.7362,0 222.2336,104.01996 222.2336,232.335087 z"
             transform="matrix(0.23856106,-0.02344177,0.02337204,0.1902402,896.54225,399.93652)" />
          <rect
             style="fill:#ffff00;fill-opacity:0.96825412;stroke:#000000;stroke-width:0.16413406;stroke-opacity:1"
             id="rect3470-1"
             width="253.64133"
             height="6.8930025"
             x="108.313"
             y="541.88586"
             ry="0.16246964"
             transform="matrix(0.99520686,-0.0977922,0.12193862,0.99253764,0,0)" />
          <rect
             style="fill:#000000;fill-opacity:0.96825412;stroke:#000000;stroke-width:0.11455299;stroke-opacity:1"
             id="rect3470-5-8"
             width="238.06566"
             height="3.5772328"
             x="116.67913"
             y="538.00446"
             ry="0.084316187"
             transform="matrix(0.99520686,-0.0977922,0.12193862,0.99253764,0,0)" />
        </g>
      </g>
      <g
         id="g3273-1"
         transform="translate(-2612.7952,-4957.5503)">
        <rect
           ry="24.452442"
           y="773.43817"
           x="405.74875"
           height="96.350586"
           width="117.17448"
           id="rect3119-9"
           style="fill:#2b1100;fill-opacity:1;stroke:#000000;stroke-width:0.41185558;stroke-miterlimit:4;stroke-opacity:1;stroke-dasharray:none" />
        <path
           sodipodi:nodetypes="scssccssccssccsscs"
           inkscape:connector-curvature="0"
           id="rect3093-5"
           d="m 472.22918,662.15659 c -17.76219,-0.0123 -35.86733,1.01224 -54.146,2.57184 0.22945,0.99562 -1.21735,3.31379 -0.72801,4.53698 1.18893,2.972 0.99557,11.7963 -1.92621,14.23084 -0.21729,0.18106 -6.28556,-13.98532 -7.49247,-17.8446 -7.99961,0.75953 -16.02822,1.5918 -24.06995,2.47952 -0.0958,0.0106 -0.20045,0.0758 -0.182,0.15826 l 25.49403,113.95026 c 0.63694,2.84692 20.92979,-7.06923 0.42714,0.35824 69.07415,-15.12662 66.11043,-9.4631 109.4714,3.41064 -18.53883,-6.58097 0.15382,-0.0618 0.16684,-0.14508 l 18.38511,-117.57406 c 0.013,-0.0832 -0.0728,-0.13898 -0.16683,-0.15826 -10.95611,-2.24588 -22.15179,-3.7615 -33.53412,-4.70844 -2.7324,2.20833 -8.6545,6.40703 -8.903,6.34386 -3.90518,-0.99277 -4.16748,-4.59118 -2.57838,-5.80312 0.45023,-0.34337 -0.32577,-0.90004 -0.75835,-1.34527 -6.43642,-0.30922 -12.92241,-0.45708 -19.4592,-0.46161 z"
           style="fill:#2b1100;fill-opacity:1;stroke:#000000;stroke-width:0.41185558;stroke-miterlimit:4;stroke-opacity:1" />
      </g>
    </g>
    <g
       id="g3475-4"
       transform="matrix(0.25900042,0,0,0.27761274,-2066.1892,-2470.2378)">
      <path
         sodipodi:nodetypes="sscssscss"
         inkscape:connector-curvature="0"
         id="path3333-2"
         d="m -2757.1295,-650.49554 c -203.5562,0 -368.5937,156.05181 -368.5937,348.5625 0,155.95863 108.2997,288.014184 257.6563,332.531254 -0.339,4.35821 -0.5,8.75148 -0.5,13.1875 0,102.567156 114.9629,131.433036 228.5758,131.433036 113.6129,0 182.8616,-28.86588 182.8616,-131.433036 0,-38.3312597 44.2477,-88.2366 22.2055,-117.81696 64.0737,-62.711374 46.3571,-133.809404 46.3571,-227.901794 0,-192.51069 -165.0061,-348.5625 -368.5626,-348.5625 z"
         style="fill:#b3b3b3;fill-opacity:1;stroke:#000000;stroke-width:0.91000003;stroke-miterlimit:4;stroke-opacity:1;stroke-dasharray:none" />
      <path
         sodipodi:nodetypes="sssss"
         inkscape:connector-curvature="0"
         id="path3337-8"
         d="m -2591.4286,-341.92353 c 0,64.69622 -32.7454,85.71429 -94.2857,85.71429 -61.5403,0 -128.5715,-21.01807 -128.5715,-85.71429 0,-64.69621 74.7835,-128.82928 125.7143,-94.28572 75.826,51.42857 97.1429,29.58951 97.1429,94.28572 z"
         style="fill:#000000;fill-opacity:1;stroke:#000000;stroke-width:0.91000003;stroke-miterlimit:4;stroke-opacity:1" />
      <path
         transform="matrix(0.38613666,0,0,0.50262041,-1438.8316,-51.524303)"
         d="m -2840,-330.49496 c 0,53.65052 -10.2335,97.14286 -22.8572,97.14286 -12.6236,0 -22.8571,-43.49234 -22.8571,-97.14286 0,-53.65052 10.2335,-97.14287 22.8571,-97.14287 12.6237,0 22.8572,43.49235 22.8572,97.14287 z"
         sodipodi:ry="97.14286"
         sodipodi:rx="22.857143"
         sodipodi:cy="-330.49496"
         sodipodi:cx="-2862.8572"
         id="path3357-87"
         style="fill:#000000;fill-opacity:1;stroke:#000000;stroke-width:0.91000003;stroke-miterlimit:4;stroke-opacity:1;stroke-dasharray:none"
         sodipodi:type="arc" />
      <path
         d="m -2840,-330.49496 c 0,53.65052 -10.2335,97.14286 -22.8572,97.14286 -12.6236,0 -22.8571,-43.49234 -22.8571,-97.14286 0,-53.65052 10.2335,-97.14287 22.8571,-97.14287 12.6237,0 22.8572,43.49235 22.8572,97.14287 z"
         sodipodi:ry="97.14286"
         sodipodi:rx="22.857143"
         sodipodi:cy="-330.49496"
         sodipodi:cx="-2862.8572"
         id="path3357-8-5"
         style="fill:#000000;fill-opacity:1;stroke:#000000;stroke-width:0.91000003;stroke-miterlimit:4;stroke-opacity:1;stroke-dasharray:none"
         sodipodi:type="arc"
         transform="matrix(0.72629199,0,0,0.53118637,-507.15836,-42.083373)" />
      <path
         sodipodi:nodetypes="sssss"
         inkscape:connector-curvature="0"
         id="path3337-9-8"
         d="m -2557.2359,-338.31201 c 0,55.98895 23.9567,74.17827 68.9798,74.17827 45.0231,0 94.0634,-18.18932 94.0634,-74.17827 0,-55.98894 -54.7119,-111.49053 -91.9731,-81.59609 -55.4745,44.50696 -71.0701,25.60715 -71.0701,81.59609 z"
         style="fill:#000000;fill-opacity:1;stroke:#000000;stroke-width:0.72408742;stroke-miterlimit:4;stroke-opacity:1" />
      <path
         sodipodi:nodetypes="ccccc"
         inkscape:connector-curvature="0"
         id="rect3402-1"
         d="m -2714.2858,9.5050271 -39.9999,-25.7142801 -14.2858,82.85714 80,0 z"
         style="fill:#666666;fill-opacity:1;stroke:#000000;stroke-width:0.91000003;stroke-miterlimit:4;stroke-opacity:1" />
      <path
         sodipodi:nodetypes="ccccc"
         inkscape:connector-curvature="0"
         id="rect3402-2-2"
         d="m -2612.8573,-6.2092429 -74.2856,11.42857 -5.7143,59.9999999 82.857,0 z"
         style="fill:#666666;fill-opacity:1;stroke:#000000;stroke-width:0.91000003;stroke-miterlimit:4;stroke-opacity:1" />
      <path
         sodipodi:nodetypes="ccccc"
         inkscape:connector-curvature="0"
         id="rect3402-7-5"
         d="m -2583.5714,11.647887 39.9999,-25.71428 17.1429,82.85714 -82.8571,0 z"
         style="fill:#666666;fill-opacity:1;stroke:#000000;stroke-width:0.91000003;stroke-miterlimit:4;stroke-opacity:1" />
      <path
         sodipodi:nodetypes="ccccc"
         inkscape:connector-curvature="0"
         id="rect3402-2-9-7"
         d="m -2519.2857,-4.0663829 59.9999,11.42857 -8.5714,51.4285699 -54.2856,8.57143 z"
         style="fill:#666666;fill-opacity:1;stroke:#000000;stroke-width:0.91000003;stroke-miterlimit:4;stroke-opacity:1" />
      <path
         sodipodi:nodetypes="ccccc"
         inkscape:connector-curvature="0"
         id="rect3402-5-4"
         d="m -2493.9285,-33.709243 39.9999,25.7142801 -5.7142,-74.2857001 -60,-8.57143 z"
         style="fill:#666666;fill-opacity:1;stroke:#000000;stroke-width:0.91000003;stroke-miterlimit:4;stroke-opacity:1" />
      <path
         sodipodi:nodetypes="ccccc"
         inkscape:connector-curvature="0"
         id="rect3402-2-4-4"
         d="m -2595.357,-17.994963 74.2856,-11.42857 5.7143,-60 -82.857,0 z"
         style="fill:#ff7f2a;fill-opacity:1;stroke:#000000;stroke-width:0.91000003;stroke-miterlimit:4;stroke-opacity:1" />
      <path
         sodipodi:nodetypes="ccccc"
         inkscape:connector-curvature="0"
         id="rect3402-7-3-4"
         d="m -2624.6429,-35.852103 -39.9999,25.71428 -17.1429,-82.85713 82.8571,0 z"
         style="fill:#666666;fill-opacity:1;stroke:#000000;stroke-width:0.91000003;stroke-miterlimit:4;stroke-opacity:1" />
      <path
         sodipodi:nodetypes="ccccc"
         inkscape:connector-curvature="0"
         id="rect3402-2-9-1-4"
         d="m -2686.0715,-20.137833 -74.2856,-11.42857 14.2857,-57.14285 62.857,-2.85714 z"
         style="fill:#666666;fill-opacity:1;stroke:#000000;stroke-width:0.91000003;stroke-miterlimit:4;stroke-opacity:1" />
    </g>
    <g
       id="g3916-1-2"
       transform="matrix(-0.23237396,0,0,0.24786215,-4757.6033,-2662.3555)"
       style="fill:#28170b">
      <path
         sodipodi:nodetypes="ccccc"
         inkscape:connector-curvature="0"
         id="rect3635-3-0"
         d="m -2823.1804,-1739.5564 c 34.5369,-382.7976 160.2837,-22.437 295.1371,-34.2857 14.9822,684.4767 45.7143,1927.3947 120,2908.2349 -133.2321,23.1613 -259.555,97.4137 -420.8514,-5.7143 7.5788,-862.23857 5.7143,-1910.25183 5.7143,-2868.2349 z"
         style="fill:#28170b;fill-opacity:1;stroke:#000000;stroke-width:1.58269906;stroke-miterlimit:4;stroke-opacity:1" />
      <rect
         transform="matrix(0.62853887,-0.77777818,0.85407154,0.52015556,0,0)"
         y="-3290.6379"
         x="-1174.652"
         height="1035.7328"
         width="110.05676"
         id="rect3637-5-3"
         style="fill:#28170b;fill-opacity:1;stroke:#000000;stroke-width:0.83514631;stroke-miterlimit:4;stroke-opacity:1;stroke-dasharray:none" />
      <rect
         transform="matrix(-0.08069756,-0.99673863,0.9849715,-0.17271694,0,0)"
         y="-3454.624"
         x="1082.035"
         height="412.61548"
         width="56.649483"
         id="rect3641-98-7"
         style="fill:#28170b;fill-opacity:1;stroke:#000000;stroke-width:0.50756526;stroke-miterlimit:4;stroke-opacity:1;stroke-dasharray:none" />
      <rect
         transform="matrix(-0.1670981,-0.98594027,0.95518098,-0.29602244,0,0)"
         y="-2501.2271"
         x="915.67133"
         height="1035.7328"
         width="110.05676"
         id="rect3637-2-4-2"
         style="fill:#28170b;fill-opacity:1;stroke:#000000;stroke-width:0.83514631;stroke-miterlimit:4;stroke-opacity:1;stroke-dasharray:none" />
      <rect
         transform="matrix(-0.68728959,-0.72638352,0.58873533,-0.80832587,0,0)"
         y="-1429.1252"
         x="1996.3793"
         height="402.00006"
         width="76.208702"
         id="rect3641-3-0-9"
         style="fill:#28170b;fill-opacity:1;stroke:#000000;stroke-width:0.58108079;stroke-miterlimit:4;stroke-opacity:1;stroke-dasharray:none" />
      <rect
         transform="matrix(0.27105813,-0.96256298,0.99586778,0.09081497,0,0)"
         y="-2040.6934"
         x="176.84416"
         height="402.00006"
         width="76.208702"
         id="rect3641-3-3-7-7"
         style="fill:#28170b;fill-opacity:1;stroke:#000000;stroke-width:0.58108079;stroke-miterlimit:4;stroke-opacity:1;stroke-dasharray:none" />
      <rect
         transform="matrix(0.98572111,-0.16838612,0.41604552,0.90934379,0,0)"
         y="-1567.1772"
         x="-2769.5598"
         height="314.3566"
         width="55.96022"
         id="rect3641-4-6-5"
         style="fill:#28170b;fill-opacity:1;stroke:#000000;stroke-width:0.4403238;stroke-miterlimit:4;stroke-opacity:1;stroke-dasharray:none" />
      <rect
         transform="matrix(0.80503072,0.59323313,-0.55749008,0.8301836,0,0)"
         y="1106.424"
         x="-3224.9236"
         height="189.19412"
         width="22.328926"
         id="rect3641-4-1-3-3"
         style="fill:#28170b;fill-opacity:1;stroke:#000000;stroke-width:0.21577886;stroke-miterlimit:4;stroke-opacity:1;stroke-dasharray:none" />
      <rect
         inkscape:transform-center-y="367.2151"
         inkscape:transform-center-x="-18.790186"
         transform="matrix(-0.55131879,0.83429467,-0.85758812,-0.51433706,0,0)"
         y="3122.0181"
         x="1261.5007"
         height="189.19412"
         width="22.328926"
         id="rect3641-4-1-1-6-4"
         style="fill:#28170b;fill-opacity:1;stroke:#000000;stroke-width:0.21577886;stroke-miterlimit:4;stroke-opacity:1;stroke-dasharray:none" />
      <rect
         inkscape:transform-center-y="-62.917386"
         inkscape:transform-center-x="263.58396"
         transform="matrix(-0.64116372,-0.76740412,0.72509421,-0.68864968,0,0)"
         y="-2351.24"
         x="2663.3486"
         height="140.6044"
         width="16.632574"
         id="rect3641-4-1-1-3-1-3"
         style="fill:#28170b;fill-opacity:1;stroke:#000000;stroke-width:0.16054632;stroke-miterlimit:4;stroke-opacity:1;stroke-dasharray:none" />
      <rect
         transform="matrix(0.43706679,-0.89942905,0.48615025,0.87387524,0,0)"
         y="-2752.4993"
         x="-1918.2391"
         height="193.3504"
         width="28.4398"
         id="rect3641-4-1-8-5-2"
         style="fill:#28170b;fill-opacity:1;stroke:#000000;stroke-width:0.24618238;stroke-miterlimit:4;stroke-opacity:1;stroke-dasharray:none" />
      <rect
         transform="matrix(-0.73017876,0.68325616,-0.96107573,-0.27628507,0,0)"
         y="2961.387"
         x="-310.43289"
         height="1605.354"
         width="135.15897"
         id="rect3637-2-7-4-1"
         style="fill:#28170b;fill-opacity:1;stroke:#000000;stroke-width:1.15222728;stroke-miterlimit:4;stroke-opacity:1;stroke-dasharray:none" />
      <rect
         transform="matrix(0.02420748,0.99970696,-0.99265673,0.12096539,0,0)"
         y="3152.196"
         x="-1536.7886"
         height="654.49835"
         width="76.222816"
         id="rect3641-3-4-2-1"
         style="fill:#28170b;fill-opacity:1;stroke:#000000;stroke-width:0.74151158;stroke-miterlimit:4;stroke-opacity:1;stroke-dasharray:none" />
      <rect
         transform="matrix(-0.93643911,0.35083015,-0.83128048,-0.55585318,0,0)"
         y="2994.9243"
         x="1097.8641"
         height="535.6308"
         width="114.13987"
         id="rect3641-3-3-2-0-3"
         style="fill:#28170b;fill-opacity:1;stroke:#000000;stroke-width:0.8208667;stroke-miterlimit:4;stroke-opacity:1;stroke-dasharray:none" />
      <rect
         transform="matrix(0.52479453,0.85122894,-0.97059306,0.2407262,0,0)"
         y="145.40611"
         x="-1569.5062"
         height="1847.4225"
         width="123.08266"
         id="rect3637-7-9-2"
         style="fill:#28170b;fill-opacity:1;stroke:#000000;stroke-width:1.17953789;stroke-miterlimit:4;stroke-opacity:1;stroke-dasharray:none" />
      <rect
         transform="matrix(0.96185058,0.27357534,-0.63633743,0.77141084,0,0)"
         y="-1038.4058"
         x="-2281.3098"
         height="491.32425"
         width="99.124496"
         id="rect3641-9-7-5"
         style="fill:#28170b;fill-opacity:1;stroke:#000000;stroke-width:0.73264867;stroke-miterlimit:4;stroke-opacity:1;stroke-dasharray:none" />
      <rect
         transform="matrix(-0.64089629,0.76762748,-0.99687024,-0.07905524,0,0)"
         y="1673.2594"
         x="-1226.1025"
         height="597.62823"
         width="66.836075"
         id="rect3641-4-3-3-3"
         style="fill:#28170b;fill-opacity:1;stroke:#000000;stroke-width:0.66350192;stroke-miterlimit:4;stroke-opacity:1;stroke-dasharray:none" />
      <rect
         inkscape:transform-center-y="-185.51185"
         inkscape:transform-center-x="608.56502"
         transform="matrix(-0.63688511,-0.77095873,0.9695966,-0.24470888,0,0)"
         y="-407.87109"
         x="1800.1151"
         height="336.71008"
         width="26.59787"
         id="rect3641-4-1-1-8-7-5"
         style="fill:#28170b;fill-opacity:1;stroke:#000000;stroke-width:0.31417572;stroke-miterlimit:4;stroke-opacity:1;stroke-dasharray:none" />
      <rect
         inkscape:transform-center-y="-186.00635"
         inkscape:transform-center-x="-377.77191"
         transform="matrix(0.99815582,-0.06070385,0.32880801,0.94439679,0,0)"
         y="-1550.627"
         x="-1198.9169"
         height="146.48621"
         width="31.727663"
         id="rect3641-4-1-1-3-6-2-1"
         style="fill:#28170b;fill-opacity:1;stroke:#000000;stroke-width:0.22632815;stroke-miterlimit:4;stroke-opacity:1;stroke-dasharray:none" />
      <rect
         inkscape:transform-center-y="-186.00635"
         inkscape:transform-center-x="-377.77191"
         transform="matrix(0.99815582,-0.06070385,0.32880801,0.94439679,0,0)"
         y="-1626.0624"
         x="-843.95441"
         height="146.48621"
         width="31.727663"
         id="rect3641-4-1-1-3-6-5-6-2"
         style="fill:#28170b;fill-opacity:1;stroke:#000000;stroke-width:0.22632815;stroke-miterlimit:4;stroke-opacity:1;stroke-dasharray:none" />
      <rect
         transform="matrix(0.59468245,0.80396068,-0.70170085,0.7124717,0,0)"
         y="813.50214"
         x="-2285.8113"
         height="442.05975"
         width="46.530075"
         id="rect3641-4-3-0-0-2"
         style="fill:#28170b;fill-opacity:1;stroke:#000000;stroke-width:0.47613326;stroke-miterlimit:4;stroke-opacity:1;stroke-dasharray:none" />
      <rect
         transform="matrix(0.94483061,-0.32755933,0.49451011,0.86917188,0,0)"
         y="-2667.3391"
         x="-2373.3491"
         height="402.00006"
         width="76.208702"
         id="rect3641-3-2-1-2"
         style="fill:#28170b;fill-opacity:1;stroke:#000000;stroke-width:0.58108079;stroke-miterlimit:4;stroke-opacity:1;stroke-dasharray:none" />
      <rect
         transform="matrix(0.63994725,0.76841885,-0.99650362,0.08354961,0,0)"
         y="2107.8767"
         x="-2111.7991"
         height="193.3504"
         width="28.4398"
         id="rect3641-4-1-8-8-6-6"
         style="fill:#28170b;fill-opacity:1;stroke:#000000;stroke-width:0.24618238;stroke-miterlimit:4;stroke-opacity:1;stroke-dasharray:none" />
    </g>
    <g
       id="g10002"
       transform="matrix(0.1284516,0,0,0.11221458,-1094.0295,-1532.2266)">
      <path
         sodipodi:nodetypes="sssccssss"
         inkscape:connector-curvature="0"
         id="rect9889"
         d="m -10201.658,-1143.5268 5343.8972,0 c 15.7319,0 345.4761,306.53994 345.1532,317.89924 l 0,1205.73642 -456.0179,226.39439 -5201.3565,11.4381 c -15.732,0.0346 -471.856,-237.90889 -471.856,-249.27059 l 0,-1205.73642 c 0,-11.36171 424.448,-306.46114 440.18,-306.46114 z"
         style="color:#000000;fill:#552200;fill-opacity:1;fill-rule:nonzero;stroke:#006b00;stroke-width:1.11551166;stroke-linecap:butt;stroke-linejoin:miter;stroke-miterlimit:4;stroke-opacity:0.02645503;stroke-dashoffset:0;marker:none;visibility:visible;display:inline;overflow:visible;enable-background:accumulate" />
      <rect
         ry="6.0356178"
         y="-473.94147"
         x="-10648.113"
         height="33.662155"
         width="6129.9009"
         id="rect9964"
         style="color:#000000;fill:#000000;fill-opacity:1;fill-rule:nonzero;stroke:#006b00;stroke-width:0.4922314;stroke-linecap:butt;stroke-linejoin:miter;stroke-miterlimit:4;stroke-opacity:0.02645503;stroke-dasharray:none;stroke-dashoffset:0;marker:none;visibility:visible;display:inline;overflow:visible;enable-background:accumulate" />
      <rect
         transform="matrix(2.7024402e-4,0.99999996,-0.99999999,1.3254512e-4,0,0)"
         ry="3.4876318"
         y="8915.8076"
         x="-1144.5914"
         height="19.451397"
         width="692.0838"
         id="rect9964-4"
         style="color:#000000;fill:#000000;fill-opacity:1;fill-rule:nonzero;stroke:#006b00;stroke-width:0.12572636;stroke-linecap:butt;stroke-linejoin:miter;stroke-miterlimit:4;stroke-opacity:0.02645503;stroke-dasharray:none;stroke-dashoffset:0;marker:none;visibility:visible;display:inline;overflow:visible;enable-background:accumulate" />
      <rect
         transform="matrix(2.7024402e-4,0.99999996,-0.99999999,1.3254512e-4,0,0)"
         ry="3.4876318"
         y="6141.4126"
         x="-1145.6145"
         height="19.451397"
         width="692.0838"
         id="rect9964-4-6"
         style="color:#000000;fill:#000000;fill-opacity:1;fill-rule:nonzero;stroke:#006b00;stroke-width:0.12572636;stroke-linecap:butt;stroke-linejoin:miter;stroke-miterlimit:4;stroke-opacity:0.02645503;stroke-dasharray:none;stroke-dashoffset:0;marker:none;visibility:visible;display:inline;overflow:visible;enable-background:accumulate" />
      <g
         transform="matrix(0.88890083,-0.007853,0.01103799,0.63240977,3224.8027,-18.082797)"
         id="g9956">
        <path
           style="color:#000000;fill:#ff6600;fill-opacity:1;fill-rule:nonzero;stroke:#006b00;stroke-width:0.76512384;stroke-linecap:butt;stroke-linejoin:miter;stroke-miterlimit:4;stroke-opacity:0.02645503;stroke-dashoffset:0;marker:none;visibility:visible;display:inline;overflow:visible;enable-background:accumulate"
           d="m -9881.2345,-384.0347 c -3.5515,432.099438 -993.6655,267.31415 -2353.0395,265.67448 -1395.81,-1.68363 -2245.953,85.38368 -2244.446,-241.54319 1.81,-392.80556 925.095,-274.01405 2244.446,-265.67446 1270.815,8.03276 2355.4786,-55.293 2353.0395,241.54317 z"
           id="path9892"
           inkscape:connector-curvature="0"
           sodipodi:nodetypes="sssss" />
        <path
           style="color:#000000;fill:#ff7f2a;fill-opacity:1;fill-rule:nonzero;stroke:#006b00;stroke-width:1;stroke-linecap:butt;stroke-linejoin:miter;stroke-miterlimit:4;stroke-opacity:0.02645503;stroke-dashoffset:0;marker:none;visibility:visible;display:inline;overflow:visible;enable-background:accumulate"
           d="m -13495.065,-401.90277 c -2.031,138.1158 194.636,352.783895 54.296,361.969395 -65.841,4.3094 -180.985,-239.951095 -180.985,-380.067795 0,-226.5647 254.072,-361.9049 247.346,-295.6082 -9.312,91.7908 -118.932,196.435 -120.657,313.7066 z"
           id="path9895"
           inkscape:connector-curvature="0"
           sodipodi:nodetypes="sssss" />
        <path
           style="color:#000000;fill:#ff7f2a;fill-opacity:1;fill-rule:nonzero;stroke:#006b00;stroke-width:1;stroke-linecap:butt;stroke-linejoin:miter;stroke-miterlimit:4;stroke-opacity:0.02645503;stroke-dashoffset:0;marker:none;visibility:visible;display:inline;overflow:visible;enable-background:accumulate"
           d="m -12370.01,-399.52615 c -2.031,138.1158 194.636,352.783895 54.296,361.969395 -65.841,4.3094 -180.985,-239.951095 -180.985,-380.067795 0,-226.5647 254.072,-361.9049 247.346,-295.6082 -9.312,91.7908 -118.932,196.435 -120.657,313.7066 z"
           id="path9895-3"
           inkscape:connector-curvature="0"
           sodipodi:nodetypes="sssss" />
        <path
           style="color:#000000;fill:#ff7f2a;fill-opacity:1;fill-rule:nonzero;stroke:#006b00;stroke-width:1;stroke-linecap:butt;stroke-linejoin:miter;stroke-miterlimit:4;stroke-opacity:0.02645503;stroke-dashoffset:0;marker:none;visibility:visible;display:inline;overflow:visible;enable-background:accumulate"
           d="m -10994.527,-387.46051 c -2.031,138.1158 194.636,352.783895 54.296,361.969395 -65.841,4.3094 -180.985,-239.951095 -180.985,-380.067795 0,-226.5647 254.072,-361.9049 247.346,-295.6082 -9.312,91.7908 -118.932,196.435 -120.657,313.7066 z"
           id="path9895-3-4"
           inkscape:connector-curvature="0"
           sodipodi:nodetypes="sssss" />
        <path
           sodipodi:type="arc"
           style="color:#000000;fill:#ff6600;fill-opacity:1;fill-rule:nonzero;stroke:#006b00;stroke-width:1;stroke-linecap:butt;stroke-linejoin:miter;stroke-miterlimit:4;stroke-opacity:0.02645503;stroke-dasharray:none;stroke-dashoffset:0;marker:none;visibility:visible;display:inline;overflow:visible;enable-background:accumulate"
           id="path9934"
           sodipodi:cx="-13079.092"
           sodipodi:cy="-2083.0364"
           sodipodi:rx="349.79956"
           sodipodi:ry="379.66052"
           d="m -12729.292,-2083.0364 c 0,209.6807 -156.611,379.6605 -349.8,379.6605 -193.189,0 -349.799,-169.9798 -349.799,-379.6605 0,-209.6807 156.61,-379.6605 349.799,-379.6605 193.189,0 349.8,169.9798 349.8,379.6605 z"
           transform="translate(-1458.9202,1689.276)" />
        <path
           sodipodi:type="arc"
           style="color:#000000;fill:#ff6600;fill-opacity:1;fill-rule:nonzero;stroke:#006b00;stroke-width:1;stroke-linecap:butt;stroke-linejoin:miter;stroke-miterlimit:4;stroke-opacity:0.02645503;stroke-dasharray:none;stroke-dashoffset:0;marker:none;visibility:visible;display:inline;overflow:visible;enable-background:accumulate"
           id="path9934-7"
           sodipodi:cx="-13079.092"
           sodipodi:cy="-2083.0364"
           sodipodi:rx="349.79956"
           sodipodi:ry="379.66052"
           d="m -12729.292,-2083.0364 c 0,209.6807 -156.611,379.6605 -349.8,379.6605 -193.189,0 -349.799,-169.9798 -349.799,-379.6605 0,-209.6807 156.61,-379.6605 349.799,-379.6605 193.189,0 349.8,169.9798 349.8,379.6605 z"
           transform="translate(3165.26,1719.1369)" />
      </g>
    </g>
    <g
       id="g10045"
       transform="matrix(0.22410665,0.11081353,-0.11601522,0.21405854,-546.26017,722.38671)">
      <g
         id="g10033">
        <path
           style="color:#000000;fill:#1a1a1a;fill-opacity:1;fill-rule:nonzero;stroke:#006b00;stroke-width:1.07795119;stroke-linecap:butt;stroke-linejoin:miter;stroke-miterlimit:4;stroke-opacity:0.02645503;stroke-dashoffset:0;marker:none;visibility:visible;display:inline;overflow:visible;enable-background:accumulate"
           d="m -8937.5722,-2729.7538 c -338.861,-1196.451 -548.872,-1234.0516 165.1082,-2781.2706 222.8387,-77.9109 445.134,-35.5214 853.7653,-18.9896 13.2066,0.059 4.3771,-1.0359 10.4315,10.1959 781.7862,1450.337 423.0746,1632.1946 243.8948,2784.576 -65.0496,418.362 -156.1855,901.4039 -169.3912,901.5612 l -944.7533,11.2593 c -13.2053,0.1575 -44.6073,-503.2351 -159.0553,-907.3322 z"
           id="rect9886-3"
           inkscape:connector-curvature="0"
           sodipodi:nodetypes="sccsssss" />
        <path
           style="color:#000000;fill:#4d4d4d;fill-opacity:1;fill-rule:nonzero;stroke:#006b00;stroke-width:1;stroke-linecap:butt;stroke-linejoin:miter;stroke-miterlimit:4;stroke-opacity:0.02645503;stroke-dashoffset:0;marker:none;visibility:visible;display:inline;overflow:visible;enable-background:accumulate"
           d="m -8871.9101,-2779.4966 c -307.5158,-1134.6191 -498.1004,-1170.2766 149.8365,-2637.5362 202.226,-73.8845 403.9591,-33.6857 774.7915,-18.0082 11.985,0.056 3.9722,-0.9824 9.4666,9.669 709.4709,1375.3844 383.9401,1547.8437 221.3345,2640.6707 -59.0325,396.7413 -141.7384,854.8199 -153.7225,854.9691 l -857.3631,10.6774 c -11.9841,0.1493 -40.4812,-477.2282 -144.3435,-860.4418 z"
           id="rect9886"
           inkscape:connector-curvature="0"
           sodipodi:nodetypes="sccsssss" />
      </g>
      <flowRoot
         transform="matrix(1136.8684,0,0,970.37367,15971313,4535447.3)"
         style="font-size:40px;font-style:normal;font-weight:normal;line-height:125%;letter-spacing:0px;word-spacing:0px;fill:#000000;fill-opacity:1;stroke:none;font-family:Sans"
         id="flowRoot10037"
         xml:space="preserve"><flowRegion
           id="flowRegion10039"><rect
             y="-4678.8174"
             x="-14056.473"
             height="977.31696"
             width="3378.3796"
             id="rect10041" /></flowRegion><flowPara
           style="font-size:0.93036973px;font-style:normal;font-variant:normal;font-weight:normal;font-stretch:normal;text-align:start;line-height:125%;writing-mode:lr-tb;text-anchor:start;fill:#000000;font-family:Perpetua;-inkscape-font-specification:Perpetua"
           id="flowPara10043">RIP</flowPara></flowRoot>    </g>
  </g>
</svg>
